%YAML 1.1
%TAG !u! tag:unity3d.com,2011:
--- !u!1001 &3679266519166721776
PrefabInstance:
  m_ObjectHideFlags: 0
  serializedVersion: 2
  m_Modification:
    m_TransformParent: {fileID: 0}
    m_Modifications:
    - target: {fileID: 13816763638393862, guid: b16faa3c39ef4ae45874fcbe1a609b11, type: 3}
      propertyPath: m_AnchorMax.y
      value: 0
      objectReference: {fileID: 0}
    - target: {fileID: 13816763638393862, guid: b16faa3c39ef4ae45874fcbe1a609b11, type: 3}
      propertyPath: m_AnchorMin.y
      value: 0
      objectReference: {fileID: 0}
    - target: {fileID: 13816763638393862, guid: b16faa3c39ef4ae45874fcbe1a609b11, type: 3}
      propertyPath: m_AnchoredPosition.x
      value: 0
      objectReference: {fileID: 0}
    - target: {fileID: 13816763638393862, guid: b16faa3c39ef4ae45874fcbe1a609b11, type: 3}
      propertyPath: m_AnchoredPosition.y
      value: 0
      objectReference: {fileID: 0}
    - target: {fileID: 135110906907630680, guid: b16faa3c39ef4ae45874fcbe1a609b11, type: 3}
      propertyPath: m_AnchorMax.y
      value: 0
      objectReference: {fileID: 0}
    - target: {fileID: 135110906907630680, guid: b16faa3c39ef4ae45874fcbe1a609b11, type: 3}
      propertyPath: m_AnchorMin.y
      value: 0
      objectReference: {fileID: 0}
    - target: {fileID: 135110906907630680, guid: b16faa3c39ef4ae45874fcbe1a609b11, type: 3}
      propertyPath: m_AnchoredPosition.x
      value: 0
      objectReference: {fileID: 0}
    - target: {fileID: 135110906907630680, guid: b16faa3c39ef4ae45874fcbe1a609b11, type: 3}
      propertyPath: m_AnchoredPosition.y
      value: 0
      objectReference: {fileID: 0}
    - target: {fileID: 348487427602811984, guid: b16faa3c39ef4ae45874fcbe1a609b11, type: 3}
      propertyPath: m_OnClick.m_PersistentCalls.m_Calls.Array.data[0].m_Arguments.m_ObjectArgument
      value: 
      objectReference: {fileID: 11400000, guid: 666d9a2147fbb99468523eab919e39c7, type: 2}
    - target: {fileID: 352274846693337056, guid: b16faa3c39ef4ae45874fcbe1a609b11, type: 3}
      propertyPath: m_AnchorMax.y
      value: 0
      objectReference: {fileID: 0}
    - target: {fileID: 352274846693337056, guid: b16faa3c39ef4ae45874fcbe1a609b11, type: 3}
      propertyPath: m_AnchorMin.y
      value: 0
      objectReference: {fileID: 0}
    - target: {fileID: 352274846693337056, guid: b16faa3c39ef4ae45874fcbe1a609b11, type: 3}
      propertyPath: m_AnchoredPosition.x
      value: 0
      objectReference: {fileID: 0}
    - target: {fileID: 352274846693337056, guid: b16faa3c39ef4ae45874fcbe1a609b11, type: 3}
      propertyPath: m_AnchoredPosition.y
      value: 0
      objectReference: {fileID: 0}
    - target: {fileID: 1768351425063099112, guid: b16faa3c39ef4ae45874fcbe1a609b11, type: 3}
      propertyPath: serializationData.Prefab
      value: 
      objectReference: {fileID: 1768351425063099112, guid: b16faa3c39ef4ae45874fcbe1a609b11, type: 3}
    - target: {fileID: 1768351425163496804, guid: b16faa3c39ef4ae45874fcbe1a609b11, type: 3}
      propertyPath: serializationData.Prefab
      value: 
      objectReference: {fileID: 1768351425163496804, guid: b16faa3c39ef4ae45874fcbe1a609b11, type: 3}
    - target: {fileID: 1768351425184578511, guid: b16faa3c39ef4ae45874fcbe1a609b11, type: 3}
      propertyPath: serializationData.Prefab
      value: 
      objectReference: {fileID: 1768351425184578511, guid: b16faa3c39ef4ae45874fcbe1a609b11, type: 3}
    - target: {fileID: 1768351425203788080, guid: b16faa3c39ef4ae45874fcbe1a609b11, type: 3}
      propertyPath: m_LocalPosition.x
      value: -11.661
      objectReference: {fileID: 0}
    - target: {fileID: 1768351425203788080, guid: b16faa3c39ef4ae45874fcbe1a609b11, type: 3}
      propertyPath: m_LocalPosition.y
      value: -0.217
      objectReference: {fileID: 0}
    - target: {fileID: 1768351425203788080, guid: b16faa3c39ef4ae45874fcbe1a609b11, type: 3}
      propertyPath: m_LocalPosition.z
      value: 8.602
      objectReference: {fileID: 0}
    - target: {fileID: 1768351425469237470, guid: b16faa3c39ef4ae45874fcbe1a609b11, type: 3}
      propertyPath: serializationData.Prefab
      value: 
      objectReference: {fileID: 1768351425469237470, guid: b16faa3c39ef4ae45874fcbe1a609b11, type: 3}
    - target: {fileID: 1768351425592852317, guid: b16faa3c39ef4ae45874fcbe1a609b11, type: 3}
      propertyPath: serializationData.Prefab
      value: 
      objectReference: {fileID: 1768351425592852317, guid: b16faa3c39ef4ae45874fcbe1a609b11, type: 3}
    - target: {fileID: 1768351426465677960, guid: b16faa3c39ef4ae45874fcbe1a609b11, type: 3}
      propertyPath: serializationData.Prefab
      value: 
      objectReference: {fileID: 1768351426465677960, guid: b16faa3c39ef4ae45874fcbe1a609b11, type: 3}
    - target: {fileID: 1768351426465677961, guid: b16faa3c39ef4ae45874fcbe1a609b11, type: 3}
      propertyPath: sceneViewId
      value: 0
      objectReference: {fileID: 0}
    - target: {fileID: 1768351426465677963, guid: b16faa3c39ef4ae45874fcbe1a609b11, type: 3}
      propertyPath: m_RootOrder
      value: 0
      objectReference: {fileID: 0}
    - target: {fileID: 1768351426465677963, guid: b16faa3c39ef4ae45874fcbe1a609b11, type: 3}
      propertyPath: m_LocalPosition.x
      value: 0
      objectReference: {fileID: 0}
    - target: {fileID: 1768351426465677963, guid: b16faa3c39ef4ae45874fcbe1a609b11, type: 3}
      propertyPath: m_LocalPosition.y
      value: 0
      objectReference: {fileID: 0}
    - target: {fileID: 1768351426465677963, guid: b16faa3c39ef4ae45874fcbe1a609b11, type: 3}
      propertyPath: m_LocalPosition.z
      value: 0
      objectReference: {fileID: 0}
    - target: {fileID: 1768351426465677963, guid: b16faa3c39ef4ae45874fcbe1a609b11, type: 3}
      propertyPath: m_LocalRotation.w
      value: 1
      objectReference: {fileID: 0}
    - target: {fileID: 1768351426465677963, guid: b16faa3c39ef4ae45874fcbe1a609b11, type: 3}
      propertyPath: m_LocalRotation.x
      value: 0
      objectReference: {fileID: 0}
    - target: {fileID: 1768351426465677963, guid: b16faa3c39ef4ae45874fcbe1a609b11, type: 3}
      propertyPath: m_LocalRotation.y
      value: 0
      objectReference: {fileID: 0}
    - target: {fileID: 1768351426465677963, guid: b16faa3c39ef4ae45874fcbe1a609b11, type: 3}
      propertyPath: m_LocalRotation.z
      value: 0
      objectReference: {fileID: 0}
    - target: {fileID: 1768351426465677963, guid: b16faa3c39ef4ae45874fcbe1a609b11, type: 3}
      propertyPath: m_LocalEulerAnglesHint.x
      value: 0
      objectReference: {fileID: 0}
    - target: {fileID: 1768351426465677963, guid: b16faa3c39ef4ae45874fcbe1a609b11, type: 3}
      propertyPath: m_LocalEulerAnglesHint.y
      value: 0
      objectReference: {fileID: 0}
    - target: {fileID: 1768351426465677963, guid: b16faa3c39ef4ae45874fcbe1a609b11, type: 3}
      propertyPath: m_LocalEulerAnglesHint.z
      value: 0
      objectReference: {fileID: 0}
    - target: {fileID: 1768351426465677974, guid: b16faa3c39ef4ae45874fcbe1a609b11, type: 3}
      propertyPath: m_Name
      value: 19 normal
      objectReference: {fileID: 0}
    - target: {fileID: 1768351426469023151, guid: b16faa3c39ef4ae45874fcbe1a609b11, type: 3}
      propertyPath: serializationData.Prefab
      value: 
      objectReference: {fileID: 1768351426469023151, guid: b16faa3c39ef4ae45874fcbe1a609b11, type: 3}
    - target: {fileID: 1768351426553950573, guid: b16faa3c39ef4ae45874fcbe1a609b11, type: 3}
      propertyPath: serializationData.Prefab
      value: 
      objectReference: {fileID: 1768351426553950573, guid: b16faa3c39ef4ae45874fcbe1a609b11, type: 3}
    - target: {fileID: 1768351426560203023, guid: b16faa3c39ef4ae45874fcbe1a609b11, type: 3}
      propertyPath: serializationData.Prefab
      value: 
      objectReference: {fileID: 1768351426560203023, guid: b16faa3c39ef4ae45874fcbe1a609b11, type: 3}
    - target: {fileID: 1768351426723649689, guid: b16faa3c39ef4ae45874fcbe1a609b11, type: 3}
      propertyPath: m_LocalPosition.x
      value: -17.421
      objectReference: {fileID: 0}
    - target: {fileID: 1768351426723649689, guid: b16faa3c39ef4ae45874fcbe1a609b11, type: 3}
      propertyPath: m_LocalPosition.y
      value: 0.423
      objectReference: {fileID: 0}
    - target: {fileID: 1768351426723649689, guid: b16faa3c39ef4ae45874fcbe1a609b11, type: 3}
      propertyPath: m_LocalPosition.z
      value: 15.769
      objectReference: {fileID: 0}
    - target: {fileID: 1768351426743802557, guid: b16faa3c39ef4ae45874fcbe1a609b11, type: 3}
      propertyPath: serializationData.Prefab
      value: 
      objectReference: {fileID: 1768351426743802557, guid: b16faa3c39ef4ae45874fcbe1a609b11, type: 3}
    - target: {fileID: 1768351426879975038, guid: b16faa3c39ef4ae45874fcbe1a609b11, type: 3}
      propertyPath: serializationData.Prefab
      value: 
      objectReference: {fileID: 1768351426879975038, guid: b16faa3c39ef4ae45874fcbe1a609b11, type: 3}
    - target: {fileID: 1768351426879975039, guid: b16faa3c39ef4ae45874fcbe1a609b11, type: 3}
      propertyPath: sceneViewId
      value: 0
      objectReference: {fileID: 0}
    - target: {fileID: 1768351427005989554, guid: b16faa3c39ef4ae45874fcbe1a609b11, type: 3}
      propertyPath: serializationData.Prefab
      value: 
      objectReference: {fileID: 1768351427005989554, guid: b16faa3c39ef4ae45874fcbe1a609b11, type: 3}
    - target: {fileID: 1768351427055580571, guid: b16faa3c39ef4ae45874fcbe1a609b11, type: 3}
      propertyPath: m_LocalPosition.x
      value: -15.739
      objectReference: {fileID: 0}
    - target: {fileID: 1768351427055580571, guid: b16faa3c39ef4ae45874fcbe1a609b11, type: 3}
      propertyPath: m_LocalPosition.y
      value: -0.435
      objectReference: {fileID: 0}
    - target: {fileID: 1768351427055580571, guid: b16faa3c39ef4ae45874fcbe1a609b11, type: 3}
      propertyPath: m_LocalPosition.z
      value: 15.799
      objectReference: {fileID: 0}
    - target: {fileID: 1768351427067595740, guid: b16faa3c39ef4ae45874fcbe1a609b11, type: 3}
      propertyPath: serializationData.Prefab
      value: 
      objectReference: {fileID: 1768351427067595740, guid: b16faa3c39ef4ae45874fcbe1a609b11, type: 3}
    - target: {fileID: 1768351427100645795, guid: b16faa3c39ef4ae45874fcbe1a609b11, type: 3}
      propertyPath: serializationData.Prefab
      value: 
      objectReference: {fileID: 1768351427100645795, guid: b16faa3c39ef4ae45874fcbe1a609b11, type: 3}
    - target: {fileID: 2564948641652344122, guid: b16faa3c39ef4ae45874fcbe1a609b11, type: 3}
      propertyPath: m_text
      value: MC19
      objectReference: {fileID: 0}
    - target: {fileID: 3277197950618296757, guid: b16faa3c39ef4ae45874fcbe1a609b11, type: 3}
      propertyPath: m_SizeDelta.x
      value: 0
      objectReference: {fileID: 0}
    - target: {fileID: 3277197950618296757, guid: b16faa3c39ef4ae45874fcbe1a609b11, type: 3}
      propertyPath: m_SizeDelta.y
      value: 0
      objectReference: {fileID: 0}
    - target: {fileID: 3987076637879988618, guid: b16faa3c39ef4ae45874fcbe1a609b11, type: 3}
      propertyPath: m_text
      value: MC19
      objectReference: {fileID: 0}
    - target: {fileID: 3987076637879988618, guid: b16faa3c39ef4ae45874fcbe1a609b11, type: 3}
      propertyPath: m_fontSize
      value: 2.8
      objectReference: {fileID: 0}
    - target: {fileID: 4116778713975140504, guid: b16faa3c39ef4ae45874fcbe1a609b11, type: 3}
      propertyPath: m_AnchorMax.y
      value: 0
      objectReference: {fileID: 0}
    - target: {fileID: 4116778713975140504, guid: b16faa3c39ef4ae45874fcbe1a609b11, type: 3}
      propertyPath: m_AnchorMin.y
      value: 0
      objectReference: {fileID: 0}
    - target: {fileID: 4116778713975140504, guid: b16faa3c39ef4ae45874fcbe1a609b11, type: 3}
      propertyPath: m_AnchoredPosition.x
      value: 0
      objectReference: {fileID: 0}
    - target: {fileID: 4116778713975140504, guid: b16faa3c39ef4ae45874fcbe1a609b11, type: 3}
      propertyPath: m_AnchoredPosition.y
      value: 0
      objectReference: {fileID: 0}
    - target: {fileID: 4145596176341474597, guid: b16faa3c39ef4ae45874fcbe1a609b11, type: 3}
      propertyPath: sceneDestinationName
      value: LobbyScene - Harda - NoSplash N
      objectReference: {fileID: 0}
    - target: {fileID: 4309802319775208170, guid: b16faa3c39ef4ae45874fcbe1a609b11, type: 3}
      propertyPath: m_AnchoredPosition.y
      value: 6520852.5
      objectReference: {fileID: 0}
    - target: {fileID: 4559829998673535773, guid: b16faa3c39ef4ae45874fcbe1a609b11, type: 3}
      propertyPath: m_SizeDelta.x
      value: 0
      objectReference: {fileID: 0}
    - target: {fileID: 4559829998673535773, guid: b16faa3c39ef4ae45874fcbe1a609b11, type: 3}
      propertyPath: m_SizeDelta.y
      value: 0
      objectReference: {fileID: 0}
    - target: {fileID: 4661846908993856005, guid: b16faa3c39ef4ae45874fcbe1a609b11, type: 3}
      propertyPath: sceneDestinationName
      value: LobbyScene - Harda - NoSplash N
      objectReference: {fileID: 0}
    - target: {fileID: 4795382072552270400, guid: b16faa3c39ef4ae45874fcbe1a609b11, type: 3}
      propertyPath: m_AnchorMax.y
      value: 0
      objectReference: {fileID: 0}
    - target: {fileID: 4795382072552270400, guid: b16faa3c39ef4ae45874fcbe1a609b11, type: 3}
      propertyPath: m_AnchorMin.y
      value: 0
      objectReference: {fileID: 0}
    - target: {fileID: 4795382072552270400, guid: b16faa3c39ef4ae45874fcbe1a609b11, type: 3}
      propertyPath: m_AnchoredPosition.x
      value: 0
      objectReference: {fileID: 0}
    - target: {fileID: 4795382072552270400, guid: b16faa3c39ef4ae45874fcbe1a609b11, type: 3}
      propertyPath: m_AnchoredPosition.y
      value: 0
      objectReference: {fileID: 0}
    - target: {fileID: 4841868076577350821, guid: b16faa3c39ef4ae45874fcbe1a609b11, type: 3}
      propertyPath: m_AnchorMax.y
      value: 0
      objectReference: {fileID: 0}
    - target: {fileID: 4841868076577350821, guid: b16faa3c39ef4ae45874fcbe1a609b11, type: 3}
      propertyPath: m_AnchorMin.y
      value: 0
      objectReference: {fileID: 0}
    - target: {fileID: 4841868076577350821, guid: b16faa3c39ef4ae45874fcbe1a609b11, type: 3}
      propertyPath: m_AnchoredPosition.x
      value: 0
      objectReference: {fileID: 0}
    - target: {fileID: 4841868076577350821, guid: b16faa3c39ef4ae45874fcbe1a609b11, type: 3}
      propertyPath: m_AnchoredPosition.y
      value: 0
      objectReference: {fileID: 0}
    - target: {fileID: 5133845893277679765, guid: b16faa3c39ef4ae45874fcbe1a609b11, type: 3}
      propertyPath: m_SizeDelta.x
      value: 0
      objectReference: {fileID: 0}
    - target: {fileID: 5133845893277679765, guid: b16faa3c39ef4ae45874fcbe1a609b11, type: 3}
      propertyPath: m_SizeDelta.y
      value: 0
      objectReference: {fileID: 0}
    - target: {fileID: 5626307913575817363, guid: b16faa3c39ef4ae45874fcbe1a609b11, type: 3}
      propertyPath: m_OnClick.m_PersistentCalls.m_Calls.Array.data[0].m_Arguments.m_ObjectArgument
      value: 
      objectReference: {fileID: 11400000, guid: 666d9a2147fbb99468523eab919e39c7, type: 2}
    - target: {fileID: 6088377622474233525, guid: b16faa3c39ef4ae45874fcbe1a609b11, type: 3}
      propertyPath: sceneDestinationName
      value: LobbyScene - Harda - NoSplash N
      objectReference: {fileID: 0}
    - target: {fileID: 6530975791920380442, guid: b16faa3c39ef4ae45874fcbe1a609b11, type: 3}
      propertyPath: m_text
      value: MC19
      objectReference: {fileID: 0}
    - target: {fileID: 8887917811095942247, guid: b16faa3c39ef4ae45874fcbe1a609b11, type: 3}
      propertyPath: m_AnchorMax.y
      value: 0
      objectReference: {fileID: 0}
    - target: {fileID: 8887917811095942247, guid: b16faa3c39ef4ae45874fcbe1a609b11, type: 3}
      propertyPath: m_AnchorMin.y
      value: 0
      objectReference: {fileID: 0}
    - target: {fileID: 8887917811095942247, guid: b16faa3c39ef4ae45874fcbe1a609b11, type: 3}
      propertyPath: m_AnchoredPosition.x
      value: 0
      objectReference: {fileID: 0}
    - target: {fileID: 8887917811095942247, guid: b16faa3c39ef4ae45874fcbe1a609b11, type: 3}
      propertyPath: m_AnchoredPosition.y
      value: 0
      objectReference: {fileID: 0}
    m_RemovedComponents: []
  m_SourcePrefab: {fileID: 100100000, guid: b16faa3c39ef4ae45874fcbe1a609b11, type: 3}
