%YAML 1.1
%TAG !u! tag:unity3d.com,2011:
--- !u!114 &11400000
MonoBehaviour:
  m_ObjectHideFlags: 0
  m_CorrespondingSourceObject: {fileID: 0}
  m_PrefabInstance: {fileID: 0}
  m_PrefabAsset: {fileID: 0}
  m_GameObject: {fileID: 0}
  m_Enabled: 1
  m_EditorHideFlags: 0
  m_Script: {fileID: 11500000, guid: 93e35967d69caf544b0723989b890e2b, type: 3}
  m_Name: WhisperV
  m_EditorClassIdentifier: 
  meshList:
  - {fileID: 4807117826872604800, guid: a75cf97218772ee489252cde1f03645a, type: 3}
  - {fileID: 4239810631664403969, guid: a75cf97218772ee489252cde1f03645a, type: 3}
  meshScaleList:
  - {x: 100, y: 100, z: 100}
  - {x: 100, y: 100, z: 100}
  meshPosList:
  - {x: 0.019, y: 0.218, z: -0.038}
  - {x: 0.018550925, y: -0.22993615, z: 0.047300465}
  meshRotList:
  - {x: 0.00000013767878, y: 0.7071068, z: 0.70710677, w: -0.0000001376788}
  - {x: 0.00000002295606, y: -0.7071073, z: -0.7071063, w: -0.00000002235174}
