%YAML 1.1
%TAG !u! tag:unity3d.com,2011:
--- !u!114 &11400000
MonoBehaviour:
  m_ObjectHideFlags: 0
  m_CorrespondingSourceObject: {fileID: 0}
  m_PrefabInstance: {fileID: 0}
  m_PrefabAsset: {fileID: 0}
  m_GameObject: {fileID: 0}
  m_Enabled: 1
  m_EditorHideFlags: 0
  m_Script: {fileID: 11500000, guid: 93e35967d69caf544b0723989b890e2b, type: 3}
  m_Name: Key Red
  m_EditorClassIdentifier: 
  meshList:
  - {fileID: -2228417370725966487, guid: 2fe5699c7e4bcdf458eea895ddf10814, type: 3}
  meshScaleList:
  - {x: 100.00004, y: 100.00001, z: 100}
  meshPosList:
  - {x: -0, y: -0.003, z: 0.117}
  meshRotList:
  - {x: -0.50000054, y: 0.4999995, z: 0.5000009, w: 0.4999992}
