%YAML 1.1
%TAG !u! tag:unity3d.com,2011:
--- !u!114 &-2967701407472697048
MonoBehaviour:
  m_ObjectHideFlags: 0
  m_CorrespondingSourceObject: {fileID: 0}
  m_PrefabInstance: {fileID: 0}
  m_PrefabAsset: {fileID: 0}
  m_GameObject: {fileID: 0}
  m_Enabled: 1
  m_EditorHideFlags: 0
  m_Script: {fileID: 11500000, guid: 775ad4994fda946d1a5936c7e2dfc785, type: 3}
  m_Name: dynamic
  m_EditorClassIdentifier: 
  particleIndices: 0b000000
  m_Blueprint: {fileID: 11400000}
--- !u!114 &11400000
MonoBehaviour:
  m_ObjectHideFlags: 0
  m_CorrespondingSourceObject: {fileID: 0}
  m_PrefabInstance: {fileID: 0}
  m_PrefabAsset: {fileID: 0}
  m_GameObject: {fileID: 0}
  m_Enabled: 1
  m_EditorHideFlags: 0
  m_Script: {fileID: 11500000, guid: e028b099aa5d14e399bc3d87df5b7737, type: 3}
  m_Name: KabelButterflyValve2_3-6
  m_EditorClassIdentifier: 
  m_Empty: 0
  m_ActiveParticleCount: 12
  m_InitialActiveParticleCount: 12
  _bounds:
    m_Center: {x: 2.9293394, y: -0.7959752, z: 0.27691585}
    m_Extent: {x: 0.35267448, y: 0.15617955, z: 0.22799048}
  positions:
  - {x: 2.5766652, y: -0.63979566, z: 0.5049063}
  - {x: 2.6616952, y: -0.6736884, z: 0.4819968}
  - {x: 2.7234185, y: -0.72758245, z: 0.42857376}
  - {x: 2.7810078, y: -0.7796495, z: 0.36893022}
  - {x: 2.8496718, y: -0.816945, z: 0.31114078}
  - {x: 2.923812, y: -0.8272945, z: 0.2591594}
  - {x: 2.9952207, y: -0.8288974, z: 0.20233448}
  - {x: 3.0658412, y: -0.8245003, z: 0.14467742}
  - {x: 3.1382782, y: -0.8131931, z: 0.09048343}
  - {x: 3.206948, y: -0.8648598, z: 0.058891058}
  - {x: 3.2568815, y: -0.9466278, z: 0.04892536}
  - {x: 3.282014, y: -0.95215476, z: 0.072300196}
  restPositions:
  - {x: 2.5766652, y: -0.63979566, z: 0.5049063, w: 1}
  - {x: 2.6616952, y: -0.6736884, z: 0.4819968, w: 1}
  - {x: 2.7234185, y: -0.72758245, z: 0.42857376, w: 1}
  - {x: 2.7810078, y: -0.7796495, z: 0.36893022, w: 1}
  - {x: 2.8496718, y: -0.816945, z: 0.31114078, w: 1}
  - {x: 2.923812, y: -0.8272945, z: 0.2591594, w: 1}
  - {x: 2.9952207, y: -0.8288974, z: 0.20233448, w: 1}
  - {x: 3.0658412, y: -0.8245003, z: 0.14467742, w: 1}
  - {x: 3.1382782, y: -0.8131931, z: 0.09048343, w: 1}
  - {x: 3.206948, y: -0.8648598, z: 0.058891058, w: 1}
  - {x: 3.2568815, y: -0.9466278, z: 0.04892536, w: 1}
  - {x: 3.282014, y: -0.95215476, z: 0.072300196, w: 1}
  orientations:
  - {x: 0.11110099, y: 0.78041756, z: -0.14499658, w: 0.59798086}
  - {x: 0.119561985, y: 0.8710791, z: -0.2616105, w: 0.39810312}
  - {x: 0.10365207, y: 0.8909903, z: -0.25657287, w: 0.35994837}
  - {x: 0.08255669, y: 0.8890977, z: -0.17738609, w: 0.41379207}
  - {x: 0.026245112, y: 0.88571686, z: -0.050454248, w: 0.46072906}
  - {x: 0.0038140677, y: 0.9007079, z: -0.007909445, w: 0.43433648}
  - {x: -0.010329327, y: 0.90318304, z: 0.02176792, w: 0.42857888}
  - {x: -0.027819095, y: 0.8924349, z: 0.055556007, w: 0.44687757}
  - {x: 0.15931606, y: 0.8044519, z: -0.24866287, w: 0.515405}
  - {x: 0.30786958, y: 0.67597747, z: -0.37538576, w: 0.5543974}
  - {x: 0.07311053, y: 0.3980783, z: -0.03184636, w: 0.91387874}
  - {x: 0.07311053, y: 0.3980783, z: -0.03184636, w: 0.91387874}
  restOrientations:
  - {x: 0.11110099, y: 0.78041756, z: -0.14499658, w: 0.59798086}
  - {x: 0.119561985, y: 0.8710791, z: -0.2616105, w: 0.39810312}
  - {x: 0.10365207, y: 0.8909903, z: -0.25657287, w: 0.35994837}
  - {x: 0.08255669, y: 0.8890977, z: -0.17738609, w: 0.41379207}
  - {x: 0.026245112, y: 0.88571686, z: -0.050454248, w: 0.46072906}
  - {x: 0.0038140677, y: 0.9007079, z: -0.007909445, w: 0.43433648}
  - {x: -0.010329327, y: 0.90318304, z: 0.02176792, w: 0.42857888}
  - {x: -0.027819095, y: 0.8924349, z: 0.055556007, w: 0.44687757}
  - {x: 0.15931606, y: 0.8044519, z: -0.24866287, w: 0.515405}
  - {x: 0.30786958, y: 0.67597747, z: -0.37538576, w: 0.5543974}
  - {x: 0.07311053, y: 0.3980783, z: -0.03184636, w: 0.91387874}
  - {x: 0.07311053, y: 0.3980783, z: -0.03184636, w: 0.91387874}
  velocities:
  - {x: 0, y: 0, z: 0}
  - {x: 0, y: 0, z: 0}
  - {x: 0, y: 0, z: 0}
  - {x: 0, y: 0, z: 0}
  - {x: 0, y: 0, z: 0}
  - {x: 0, y: 0, z: 0}
  - {x: 0, y: 0, z: 0}
  - {x: 0, y: 0, z: 0}
  - {x: 0, y: 0, z: 0}
  - {x: 0, y: 0, z: 0}
  - {x: 0, y: 0, z: 0}
  - {x: 0, y: 0, z: 0}
  angularVelocities:
  - {x: 0, y: 0, z: 0}
  - {x: 0, y: 0, z: 0}
  - {x: 0, y: 0, z: 0}
  - {x: 0, y: 0, z: 0}
  - {x: 0, y: 0, z: 0}
  - {x: 0, y: 0, z: 0}
  - {x: 0, y: 0, z: 0}
  - {x: 0, y: 0, z: 0}
  - {x: 0, y: 0, z: 0}
  - {x: 0, y: 0, z: 0}
  - {x: 0, y: 0, z: 0}
  - {x: 0, y: 0, z: 0}
  invMasses:
  - 10
  - 10
  - 10
  - 10
  - 10
  - 10
  - 10
  - 10
  - 10
  - 10
  - 10
  - 10
  invRotationalMasses:
  - 100
  - 100
  - 100
  - 100
  - 100
  - 100
  - 100
  - 100
  - 100
  - 100
  - 100
  - 100
  filters: 0200ffff0200ffff0200ffff0200ffff0200ffff0200ffff0200ffff0200ffff0200ffff0200ffff0200ffff0200ffff
  principalRadii:
  - {x: 0.1, y: 0.1, z: 0.1}
  - {x: 0.1, y: 0.1, z: 0.1}
  - {x: 0.1, y: 0.1, z: 0.1}
  - {x: 0.1, y: 0.1, z: 0.1}
  - {x: 0.1, y: 0.1, z: 0.1}
  - {x: 0.1, y: 0.1, z: 0.1}
  - {x: 0.1, y: 0.1, z: 0.1}
  - {x: 0.1, y: 0.1, z: 0.1}
  - {x: 0.1, y: 0.1, z: 0.1}
  - {x: 0.1, y: 0.1, z: 0.1}
  - {x: 0.1, y: 0.1, z: 0.1}
  - {x: 0.1, y: 0.1, z: 0.1}
  colors:
  - {r: 1, g: 1, b: 1, a: 1}
  - {r: 1, g: 1, b: 1, a: 1}
  - {r: 1, g: 1, b: 1, a: 1}
  - {r: 1, g: 1, b: 1, a: 1}
  - {r: 1, g: 1, b: 1, a: 1}
  - {r: 1, g: 1, b: 1, a: 1}
  - {r: 1, g: 1, b: 1, a: 1}
  - {r: 1, g: 1, b: 1, a: 1}
  - {r: 1, g: 1, b: 1, a: 1}
  - {r: 1, g: 1, b: 1, a: 1}
  - {r: 1, g: 1, b: 1, a: 1}
  - {r: 1, g: 1, b: 1, a: 1}
  points: 
  edges: 000000000100000001000000020000000200000003000000030000000400000004000000050000000500000006000000060000000700000007000000080000000800000009000000090000000a0000000a0000000b000000
  triangles: 
  distanceConstraintsData:
    batches: []
  bendConstraintsData:
    batches: []
  skinConstraintsData:
    batches: []
  tetherConstraintsData:
    batches: []
  stretchShearConstraintsData:
    batches:
    - m_IDs: 000000000100000002000000030000000400000005000000
      m_IDToIndex: 000000000100000002000000030000000400000005000000
      m_ConstraintCount: 6
      m_ActiveConstraintCount: 6
      m_InitialActiveConstraintCount: 6
      particleIndices:
        serializedContents: 000000000100000002000000030000000400000005000000060000000700000008000000090000000a0000000b000000
        m_AlignBytes: 16
      lambdas:
        serializedContents: []
        m_AlignBytes: 16
      orientationIndices:
        serializedContents: 00000000020000000400000006000000080000000a000000
        m_AlignBytes: 16
      restLengths:
        serializedContents:
        - 0.0943593
        - 0.097902276
        - 0.09113686
        - 0.09127393
        - 0.09155911
        - 0.034764476
        m_AlignBytes: 16
      restOrientations:
        serializedContents:
        - {x: 0, y: 0, z: 0, w: 1}
        - {x: 0, y: 0, z: 0, w: 1}
        - {x: 0, y: 0, z: 0, w: 1}
        - {x: 0, y: 0, z: 0, w: 1}
        - {x: 0, y: 0, z: 0, w: 1}
        - {x: 0, y: 0, z: 0, w: 1}
        m_AlignBytes: 16
      stiffnesses:
        serializedContents:
        - {x: 0, y: 0, z: 0}
        - {x: 0, y: 0, z: 0}
        - {x: 0, y: 0, z: 0}
        - {x: 0, y: 0, z: 0}
        - {x: 0, y: 0, z: 0}
        - {x: 0, y: 0, z: 0}
        m_AlignBytes: 16
    - m_IDs: 0000000001000000020000000300000004000000
      m_IDToIndex: 0000000001000000020000000300000004000000
      m_ConstraintCount: 5
      m_ActiveConstraintCount: 5
      m_InitialActiveConstraintCount: 5
      particleIndices:
        serializedContents: 0100000002000000030000000400000005000000060000000700000008000000090000000a000000
        m_AlignBytes: 16
      lambdas:
        serializedContents: []
        m_AlignBytes: 16
      orientationIndices:
        serializedContents: 0100000003000000050000000700000009000000
        m_AlignBytes: 16
      restLengths:
        serializedContents:
        - 0.09781793
        - 0.097187094
        - 0.09127349
        - 0.09117
        - 0.09632583
        m_AlignBytes: 16
      restOrientations:
        serializedContents:
        - {x: 0, y: 0, z: 0, w: 1}
        - {x: 0, y: 0, z: 0, w: 1}
        - {x: 0, y: 0, z: 0, w: 1}
        - {x: 0, y: 0, z: 0, w: 1}
        - {x: 0, y: 0, z: 0, w: 1}
        m_AlignBytes: 16
      stiffnesses:
        serializedContents:
        - {x: 0, y: 0, z: 0}
        - {x: 0, y: 0, z: 0}
        - {x: 0, y: 0, z: 0}
        - {x: 0, y: 0, z: 0}
        - {x: 0, y: 0, z: 0}
        m_AlignBytes: 16
  bendTwistConstraintsData:
    batches:
    - m_IDs: 000000000100000002000000030000000400000005000000
      m_IDToIndex: 000000000100000002000000030000000400000005000000
      m_ConstraintCount: 6
      m_ActiveConstraintCount: 6
      m_InitialActiveConstraintCount: 6
      particleIndices:
        serializedContents: 000000000100000002000000030000000400000005000000060000000700000008000000090000000a0000000b000000
        m_AlignBytes: 16
      lambdas:
        serializedContents: []
        m_AlignBytes: 16
      restDarbouxVectors:
        serializedContents:
        - {x: 0.10512807, y: 0.19847284, z: -0.10218396, w: 0.96907955}
        - {x: -0.08324332, y: -0.045860097, z: 0.023718383, w: 0.99519086}
        - {x: -0.04808097, y: 0.030268013, z: -0.001990986, w: 0.99838275}
        - {x: -0.038057525, y: -0.021101784, z: -0.0018249473, w: 0.99905103}
        - {x: 0.2042424, y: -0.080833115, z: 0.08435455, w: 0.9719236}
        - {x: 0, y: 0, z: 0, w: 1}
        m_AlignBytes: 16
      stiffnesses:
        serializedContents:
        - {x: 0, y: 0, z: 0}
        - {x: 0, y: 0, z: 0}
        - {x: 0, y: 0, z: 0}
        - {x: 0, y: 0, z: 0}
        - {x: 0, y: 0, z: 0}
        - {x: 0, y: 0, z: 0}
        m_AlignBytes: 16
      plasticity:
        serializedContents:
        - {x: 0, y: 0}
        - {x: 0, y: 0}
        - {x: 0, y: 0}
        - {x: 0, y: 0}
        - {x: 0, y: 0}
        - {x: 0, y: 0}
        m_AlignBytes: 16
    - m_IDs: 0000000001000000020000000300000004000000
      m_IDToIndex: 0000000001000000020000000300000004000000
      m_ConstraintCount: 5
      m_ActiveConstraintCount: 5
      m_InitialActiveConstraintCount: 5
      particleIndices:
        serializedContents: 0100000002000000030000000400000005000000060000000700000008000000090000000a000000
        m_AlignBytes: 16
      lambdas:
        serializedContents: []
        m_AlignBytes: 16
      restDarbouxVectors:
        serializedContents:
        - {x: -0.011369096, y: 0.037602637, z: -0.024215609, w: 0.9989346}
        - {x: -0.13943134, y: -0.04264035, z: 0.011061978, w: 0.98925143}
        - {x: -0.032871246, y: 0.0062622856, z: 0.000095915566, w: 0.99943995}
        - {x: 0.35214043, y: -0.10240729, z: 0.024802633, w: 0.92999715}
        - {x: -0.36872867, y: -0.37942773, z: 0.2522664, w: 0.8102071}
        m_AlignBytes: 16
      stiffnesses:
        serializedContents:
        - {x: 0, y: 0, z: 0}
        - {x: 0, y: 0, z: 0}
        - {x: 0, y: 0, z: 0}
        - {x: 0, y: 0, z: 0}
        - {x: 0, y: 0, z: 0}
        m_AlignBytes: 16
      plasticity:
        serializedContents:
        - {x: 0, y: 0}
        - {x: 0, y: 0}
        - {x: 0, y: 0}
        - {x: 0, y: 0}
        - {x: 0, y: 0}
        m_AlignBytes: 16
  shapeMatchingConstraintsData:
    batches: []
  aerodynamicConstraintsData:
    batches: []
  chainConstraintsData:
    batches:
    - m_IDs: 00000000
      m_IDToIndex: 00000000
      m_ConstraintCount: 1
      m_ActiveConstraintCount: 1
      m_InitialActiveConstraintCount: 1
      particleIndices:
        serializedContents: 000000000100000002000000030000000400000005000000060000000700000008000000090000000a0000000b000000
        m_AlignBytes: 16
      lambdas:
        serializedContents: []
        m_AlignBytes: 16
      firstParticle:
        serializedContents: 00000000
        m_AlignBytes: 16
      numParticles:
        serializedContents: 0c000000
        m_AlignBytes: 16
      lengths:
        serializedContents:
        - {x: 0.09501019, y: 0.09501019}
        m_AlignBytes: 16
  volumeConstraintsData:
    batches: []
  groups:
  - {fileID: 60835387937387262}
  - {fileID: 1661278503569545086}
  - {fileID: 6959370792855237396}
  - {fileID: -2967701407472697048}
  path:
    m_Names:
    - static
    - control point
    - control point
    - dynamic
    m_Points:
      data:
      - tangentMode: 0
        inTangent: {x: -0.24617478, y: -0, z: -0.043564573}
        position: {x: 2.5766652, y: -0.63979566, z: 0.5049063}
        outTangent: {x: 0.10009575, y: 0, z: 0.017713547}
      - tangentMode: 1
        inTangent: {x: -0.09245777, y: 0.020755291, z: 0.05674398}
        position: {x: 2.8496718, y: -0.816945, z: 0.31114078}
        outTangent: {x: 0.09245777, y: -0.020755291, z: -0.05674398}
      - tangentMode: 1
        inTangent: {x: -0.06937742, y: -0.015602469, z: 0.044651985}
        position: {x: 3.1382782, y: -0.8131931, z: 0.09048343}
        outTangent: {x: 0.06937742, y: 0.015602469, z: -0.044651985}
      - tangentMode: 0
        inTangent: {x: 0.028598785, y: -0.13901442, z: -0.039479017}
        position: {x: 3.282014, y: -0.95215476, z: 0.072300196}
        outTangent: {x: -0.048533663, y: 0.23591487, z: 0.06699799}
    m_Normals:
      data:
      - {x: 0, y: 1, z: 0}
      - {x: 0, y: 1, z: 0}
      - {x: 0, y: 1, z: 0}
      - {x: 0, y: 1, z: 0}
    m_Colors:
      data:
      - {r: 1, g: 1, b: 1, a: 1}
      - {r: 1, g: 1, b: 1, a: 1}
      - {r: 1, g: 1, b: 1, a: 1}
      - {r: 1, g: 1, b: 1, a: 1}
    m_Thickness:
      data:
      - 1
      - 1
      - 1
      - 1
    m_Masses:
      data:
      - 0.1
      - 0.1
      - 0.1
      - 0.1
    m_RotationalMasses:
      data:
      - 0.01
      - 0.01
      - 0.01
      - 0.01
    m_Filters:
      data: 0200ffff0200ffff0200ffff0200ffff
    m_Closed: 0
    m_ArcLengthTable:
    - 0
    - 0.014301046
    - 0.028581105
    - 0.043349117
    - 0.058936507
    - 0.075514905
    - 0.09313353
    - 0.11175534
    - 0.13128479
    - 0.15158725
    - 0.17250223
    - 0.19385257
    - 0.2154509
    - 0.2371048
    - 0.2586211
    - 0.27981004
    - 0.30048996
    - 0.32049304
    - 0.33967316
    - 0.35791692
    - 0.37515965
    - 0.39140862
    - 0.40755287
    - 0.42438427
    - 0.44182977
    - 0.45980945
    - 0.47823822
    - 0.4970271
    - 0.516084
    - 0.5353147
    - 0.554623
    - 0.57391155
    - 0.59308183
    - 0.6120347
    - 0.6306704
    - 0.64888936
    - 0.66659164
    - 0.68367803
    - 0.7000499
    - 0.71560985
    - 0.73026264
    - 0.743916
    - 0.7564823
    - 0.7683899
    - 0.78086716
    - 0.794609
    - 0.8098359
    - 0.82647014
    - 0.84426767
    - 0.8628927
    - 0.88195693
    - 0.9010412
    - 0.9197076
    - 0.9375073
    - 0.9539863
    - 0.96869177
    - 0.98118144
    - 0.99104726
    - 0.9980014
    - 1.0023509
    - 1.0067018
    - 1.0144557
    - 1.0270225
    - 1.0451121
    m_TotalSplineLenght: 1.0451121
    OnPathChanged:
      m_PersistentCalls:
        m_Calls: []
    OnControlPointAdded:
      m_PersistentCalls:
        m_Calls: []
    OnControlPointRemoved:
      m_PersistentCalls:
        m_Calls: []
    OnControlPointRenamed:
      m_PersistentCalls:
        m_Calls: []
  thickness: 0.1
  resolution: 1
  m_InterParticleDistance: 0.09501019
  totalParticles: 12
  m_RestLength: 0.9747703
  restLengths:
  - 0.0943593
  - 0.09781793
  - 0.097902276
  - 0.097187094
  - 0.09113686
  - 0.09127349
  - 0.09127393
  - 0.09117
  - 0.09155911
  - 0.09632583
  - 0.034764476
  - 0
  keepInitialShape: 1
--- !u!114 &60835387937387262
MonoBehaviour:
  m_ObjectHideFlags: 0
  m_CorrespondingSourceObject: {fileID: 0}
  m_PrefabInstance: {fileID: 0}
  m_PrefabAsset: {fileID: 0}
  m_GameObject: {fileID: 0}
  m_Enabled: 1
  m_EditorHideFlags: 0
  m_Script: {fileID: 11500000, guid: 775ad4994fda946d1a5936c7e2dfc785, type: 3}
  m_Name: static
  m_EditorClassIdentifier: 
  particleIndices: 00000000
  m_Blueprint: {fileID: 11400000}
--- !u!114 &1661278503569545086
MonoBehaviour:
  m_ObjectHideFlags: 0
  m_CorrespondingSourceObject: {fileID: 0}
  m_PrefabInstance: {fileID: 0}
  m_PrefabAsset: {fileID: 0}
  m_GameObject: {fileID: 0}
  m_Enabled: 1
  m_EditorHideFlags: 0
  m_Script: {fileID: 11500000, guid: 775ad4994fda946d1a5936c7e2dfc785, type: 3}
  m_Name: control point
  m_EditorClassIdentifier: 
  particleIndices: 04000000
  m_Blueprint: {fileID: 11400000}
--- !u!114 &6959370792855237396
MonoBehaviour:
  m_ObjectHideFlags: 0
  m_CorrespondingSourceObject: {fileID: 0}
  m_PrefabInstance: {fileID: 0}
  m_PrefabAsset: {fileID: 0}
  m_GameObject: {fileID: 0}
  m_Enabled: 1
  m_EditorHideFlags: 0
  m_Script: {fileID: 11500000, guid: 775ad4994fda946d1a5936c7e2dfc785, type: 3}
  m_Name: control point
  m_EditorClassIdentifier: 
  particleIndices: 08000000
  m_Blueprint: {fileID: 11400000}
