%YAML 1.1
%TAG !u! tag:unity3d.com,2011:
--- !u!114 &11400000
MonoBehaviour:
  m_ObjectHideFlags: 0
  m_CorrespondingSourceObject: {fileID: 0}
  m_PrefabInstance: {fileID: 0}
  m_PrefabAsset: {fileID: 0}
  m_GameObject: {fileID: 0}
  m_Enabled: 1
  m_EditorHideFlags: 0
  m_Script: {fileID: 11500000, guid: e028b099aa5d14e399bc3d87df5b7737, type: 3}
  m_Name: SelangT_3-1
  m_EditorClassIdentifier: 
  m_Empty: 0
  m_ActiveParticleCount: 6
  m_InitialActiveParticleCount: 6
  _bounds:
    m_Center: {x: 0.15181017, y: 0.0009505749, z: -0.19797325}
    m_Extent: {x: 0.241404, y: 0, z: 0}
  positions:
  - {x: -0.08959383, y: 0.0009505749, z: -0.19797325}
  - {x: 0.0071397778, y: 0.0009505748, z: -0.19797324}
  - {x: 0.10363993, y: 0.0009505749, z: -0.19797325}
  - {x: 0.19998042, y: 0.0009505749, z: -0.19797325}
  - {x: 0.29648057, y: 0.0009505749, z: -0.19797325}
  - {x: 0.39321417, y: 0.0009505749, z: -0.19797325}
  restPositions:
  - {x: -0.08959383, y: 0.0009505749, z: -0.19797325, w: 1}
  - {x: 0.0071397778, y: 0.0009505748, z: -0.19797324, w: 1}
  - {x: 0.10363993, y: 0.0009505749, z: -0.19797325, w: 1}
  - {x: 0.19998042, y: 0.0009505749, z: -0.19797325, w: 1}
  - {x: 0.29648057, y: 0.0009505749, z: -0.19797325, w: 1}
  - {x: 0.39321417, y: 0.0009505749, z: -0.19797325, w: 1}
  orientations:
  - {x: 2.1274423e-10, y: 0.7071067, z: -2.1274418e-10, w: 0.7071068}
  - {x: -2.1325888e-10, y: 0.7071068, z: 2.1325892e-10, w: 0.7071067}
  - {x: 0, y: 0.7071068, z: 0, w: 0.7071068}
  - {x: 0, y: 0.7071068, z: 0, w: 0.7071068}
  - {x: 0, y: 0.7071068, z: 0, w: 0.7071068}
  - {x: 0, y: 0.7071068, z: 0, w: 0.7071068}
  restOrientations:
  - {x: 2.1274423e-10, y: 0.7071067, z: -2.1274418e-10, w: 0.7071068}
  - {x: -2.1325888e-10, y: 0.7071068, z: 2.1325892e-10, w: 0.7071067}
  - {x: 0, y: 0.7071068, z: 0, w: 0.7071068}
  - {x: 0, y: 0.7071068, z: 0, w: 0.7071068}
  - {x: 0, y: 0.7071068, z: 0, w: 0.7071068}
  - {x: 0, y: 0.7071068, z: 0, w: 0.7071068}
  velocities:
  - {x: 0, y: 0, z: 0}
  - {x: 0, y: 0, z: 0}
  - {x: 0, y: 0, z: 0}
  - {x: 0, y: 0, z: 0}
  - {x: 0, y: 0, z: 0}
  - {x: 0, y: 0, z: 0}
  angularVelocities:
  - {x: 0, y: 0, z: 0}
  - {x: 0, y: 0, z: 0}
  - {x: 0, y: 0, z: 0}
  - {x: 0, y: 0, z: 0}
  - {x: 0, y: 0, z: 0}
  - {x: 0, y: 0, z: 0}
  invMasses:
  - 10
  - 10.000001
  - 10
  - 10
  - 10
  - 10
  invRotationalMasses:
  - 100
  - 100
  - 100
  - 100
  - 100
  - 100
  filters: 0200ffff0200ffff0200ffff0200ffff0200ffff0200ffff
  principalRadii:
  - {x: 0.1, y: 0.1, z: 0.1}
  - {x: 0.099999994, y: 0.099999994, z: 0.099999994}
  - {x: 0.1, y: 0.1, z: 0.1}
  - {x: 0.1, y: 0.1, z: 0.1}
  - {x: 0.1, y: 0.1, z: 0.1}
  - {x: 0.1, y: 0.1, z: 0.1}
  colors:
  - {r: 1, g: 1, b: 1, a: 1}
  - {r: 0.99999994, g: 0.99999994, b: 0.99999994, a: 0.99999994}
  - {r: 1, g: 1, b: 1, a: 1}
  - {r: 1, g: 1, b: 1, a: 1}
  - {r: 1, g: 1, b: 1, a: 1}
  - {r: 1, g: 1, b: 1, a: 1}
  points: 
  edges: 00000000010000000100000002000000020000000300000003000000040000000400000005000000
  triangles: 
  distanceConstraintsData:
    batches: []
  bendConstraintsData:
    batches: []
  skinConstraintsData:
    batches: []
  tetherConstraintsData:
    batches: []
  stretchShearConstraintsData:
    batches:
    - m_IDs: 000000000100000002000000
      m_IDToIndex: 000000000100000002000000
      m_ConstraintCount: 3
      m_ActiveConstraintCount: 3
      m_InitialActiveConstraintCount: 3
      particleIndices:
        serializedContents: 000000000100000002000000030000000400000005000000
        m_AlignBytes: 16
      lambdas:
        serializedContents: []
        m_AlignBytes: 16
      orientationIndices:
        serializedContents: 000000000200000004000000
        m_AlignBytes: 16
      restLengths:
        serializedContents:
        - 0.09673361
        - 0.09634049
        - 0.0967336
        m_AlignBytes: 16
      restOrientations:
        serializedContents:
        - {x: 0, y: 0, z: 0, w: 1}
        - {x: 0, y: 0, z: 0, w: 1}
        - {x: 0, y: 0, z: 0, w: 1}
        m_AlignBytes: 16
      stiffnesses:
        serializedContents:
        - {x: 0, y: 0, z: 0}
        - {x: 0, y: 0, z: 0}
        - {x: 0, y: 0, z: 0}
        m_AlignBytes: 16
    - m_IDs: 0000000001000000
      m_IDToIndex: 0000000001000000
      m_ConstraintCount: 2
      m_ActiveConstraintCount: 2
      m_InitialActiveConstraintCount: 2
      particleIndices:
        serializedContents: 01000000020000000300000004000000
        m_AlignBytes: 16
      lambdas:
        serializedContents: []
        m_AlignBytes: 16
      orientationIndices:
        serializedContents: 0100000003000000
        m_AlignBytes: 16
      restLengths:
        serializedContents:
        - 0.09650015
        - 0.09650014
        m_AlignBytes: 16
      restOrientations:
        serializedContents:
        - {x: 0, y: 0, z: 0, w: 1}
        - {x: 0, y: 0, z: 0, w: 1}
        m_AlignBytes: 16
      stiffnesses:
        serializedContents:
        - {x: 0, y: 0, z: 0}
        - {x: 0, y: 0, z: 0}
        m_AlignBytes: 16
  bendTwistConstraintsData:
    batches:
    - m_IDs: 000000000100000002000000
      m_IDToIndex: 000000000100000002000000
      m_ConstraintCount: 3
      m_ActiveConstraintCount: 3
      m_InitialActiveConstraintCount: 3
      particleIndices:
        serializedContents: 000000000100000002000000030000000400000005000000
        m_AlignBytes: 16
      lambdas:
        serializedContents: []
        m_AlignBytes: 16
      restDarbouxVectors:
        serializedContents:
        - {x: -6.0245936e-10, y: 0.00000016858739, z: 6.135695e-20, w: 0.99999994}
        - {x: 0, y: 0, z: 0, w: 1.0000001}
        - {x: 0, y: 0, z: 0, w: 1.0000001}
        m_AlignBytes: 16
      stiffnesses:
        serializedContents:
        - {x: 0, y: 0, z: 0}
        - {x: 0, y: 0, z: 0}
        - {x: 0, y: 0, z: 0}
        m_AlignBytes: 16
      plasticity:
        serializedContents:
        - {x: 0, y: 0}
        - {x: 0, y: 0}
        - {x: 0, y: 0}
        m_AlignBytes: 16
    - m_IDs: 0000000001000000
      m_IDToIndex: 0000000001000000
      m_ConstraintCount: 2
      m_ActiveConstraintCount: 2
      m_InitialActiveConstraintCount: 2
      particleIndices:
        serializedContents: 01000000020000000300000004000000
        m_AlignBytes: 16
      lambdas:
        serializedContents: []
        m_AlignBytes: 16
      restDarbouxVectors:
        serializedContents:
        - {x: 3.0159367e-10, y: -0.0000000842937, z: -2.9439236e-17, w: 1}
        - {x: 0, y: 0, z: 0, w: 1.0000001}
        m_AlignBytes: 16
      stiffnesses:
        serializedContents:
        - {x: 0, y: 0, z: 0}
        - {x: 0, y: 0, z: 0}
        m_AlignBytes: 16
      plasticity:
        serializedContents:
        - {x: 0, y: 0}
        - {x: 0, y: 0}
        m_AlignBytes: 16
  shapeMatchingConstraintsData:
    batches: []
  aerodynamicConstraintsData:
    batches: []
  chainConstraintsData:
    batches:
    - m_IDs: 00000000
      m_IDToIndex: 00000000
      m_ConstraintCount: 1
      m_ActiveConstraintCount: 1
      m_InitialActiveConstraintCount: 1
      particleIndices:
        serializedContents: 000000000100000002000000030000000400000005000000
        m_AlignBytes: 16
      lambdas:
        serializedContents: []
        m_AlignBytes: 16
      firstParticle:
        serializedContents: 00000000
        m_AlignBytes: 16
      numParticles:
        serializedContents: 06000000
        m_AlignBytes: 16
      lengths:
        serializedContents:
        - {x: 0.09656161, y: 0.09656161}
        m_AlignBytes: 16
  volumeConstraintsData:
    batches: []
  groups:
  - {fileID: 4659471426111306313}
  - {fileID: 1436876100905070761}
  path:
    m_Names:
    - connector
    - tip
    m_Points:
      data:
      - tangentMode: 0
        inTangent: {x: -0.25, y: 0, z: 0}
        position: {x: -0.08959383, y: 0.0009505749, z: -0.19797325}
        outTangent: {x: 0.25, y: 0, z: 0}
      - tangentMode: 0
        inTangent: {x: -0.25, y: 0, z: 0}
        position: {x: 0.39321417, y: 0.0009505749, z: -0.19797325}
        outTangent: {x: 0.25, y: 0, z: 0}
    m_Normals:
      data:
      - {x: 0, y: 1, z: 0}
      - {x: 0, y: 1, z: 0}
    m_Colors:
      data:
      - {r: 1, g: 1, b: 1, a: 1}
      - {r: 1, g: 1, b: 1, a: 1}
    m_Thickness:
      data:
      - 1
      - 1
    m_Masses:
      data:
      - 0.1
      - 0.1
    m_RotationalMasses:
      data:
      - 0.01
      - 0.01
    m_Filters:
      data: 0200ffff0200ffff
    m_Closed: 0
    m_ArcLengthTable:
    - 0
    - 0.033954356
    - 0.06461966
    - 0.09234214
    - 0.11746799
    - 0.14034344
    - 0.16131471
    - 0.180728
    - 0.19892955
    - 0.21626554
    - 0.23308222
    - 0.2497258
    - 0.2665425
    - 0.2838785
    - 0.30208004
    - 0.32149333
    - 0.3424646
    - 0.36534005
    - 0.39046592
    - 0.4181884
    - 0.4488537
    - 0.48280805
    m_TotalSplineLenght: 0.48280805
    OnPathChanged:
      m_PersistentCalls:
        m_Calls: []
    OnControlPointAdded:
      m_PersistentCalls:
        m_Calls: []
    OnControlPointRemoved:
      m_PersistentCalls:
        m_Calls: []
    OnControlPointRenamed:
      m_PersistentCalls:
        m_Calls: []
  thickness: 0.1
  resolution: 1
  m_InterParticleDistance: 0.09656161
  totalParticles: 6
  m_RestLength: 0.48280802
  restLengths:
  - 0.09673361
  - 0.09650015
  - 0.09634049
  - 0.09650014
  - 0.0967336
  - 0
  keepInitialShape: 1
--- !u!114 &1436876100905070761
MonoBehaviour:
  m_ObjectHideFlags: 0
  m_CorrespondingSourceObject: {fileID: 0}
  m_PrefabInstance: {fileID: 0}
  m_PrefabAsset: {fileID: 0}
  m_GameObject: {fileID: 0}
  m_Enabled: 1
  m_EditorHideFlags: 0
  m_Script: {fileID: 11500000, guid: 775ad4994fda946d1a5936c7e2dfc785, type: 3}
  m_Name: tip
  m_EditorClassIdentifier: 
  particleIndices: 05000000
  m_Blueprint: {fileID: 11400000}
--- !u!114 &4659471426111306313
MonoBehaviour:
  m_ObjectHideFlags: 0
  m_CorrespondingSourceObject: {fileID: 0}
  m_PrefabInstance: {fileID: 0}
  m_PrefabAsset: {fileID: 0}
  m_GameObject: {fileID: 0}
  m_Enabled: 1
  m_EditorHideFlags: 0
  m_Script: {fileID: 11500000, guid: 775ad4994fda946d1a5936c7e2dfc785, type: 3}
  m_Name: connector
  m_EditorClassIdentifier: 
  particleIndices: 00000000
  m_Blueprint: {fileID: 11400000}
