%YAML 1.1
%TAG !u! tag:unity3d.com,2011:
--- !u!114 &11400000
MonoBehaviour:
  m_ObjectHideFlags: 0
  m_CorrespondingSourceObject: {fileID: 0}
  m_PrefabInstance: {fileID: 0}
  m_PrefabAsset: {fileID: 0}
  m_GameObject: {fileID: 0}
  m_Enabled: 1
  m_EditorHideFlags: 0
  m_Script: {fileID: 11500000, guid: dc30735a6f974fda88a33f70e2b17a3b, type: 3}
  m_Name: 2
  m_EditorClassIdentifier: 
  SnappedLeft: 1
  LeftHand:
    Position: {x: 1.0851395, y: 2.3991442, z: 4.0597067}
    Rotation: {x: -0.7086136, y: -0.63091135, z: 0.0284838, w: 0.31465316}
    Thumb:
      Bones:
      - Position: {x: 0.026298406, y: -0.041470297, z: 0.020564148}
        Rotation: {x: 0.3069186, y: 0.9318169, z: 0.15754038, w: 0.11269181}
      - Position: {x: -0.03258824, y: 0, z: 0}
        Rotation: {x: 0.017212339, y: 0.007500209, z: 0.07353306, w: 0.9971161}
      - Position: {x: -0.026371535, y: 1.4210854e-16, z: -1.0658141e-16}
        Rotation: {x: 0.027590483, y: 0.005666053, z: 0.20108539, w: 0.9791688}
    Index:
      Bones:
      - Position: {x: 0.087078705, y: -0.035099912, z: -0.0068139634}
        Rotation: {x: 0.055844635, y: 0.73089284, z: 0.6695575, w: 0.11987428}
      - Position: {x: -0.04157472, y: 0, z: 7.105427e-17}
        Rotation: {x: -0.00000008568168, y: -0.000000052154064, z: -0.059961796, w: 0.9982007}
      - Position: {x: -0.022153005, y: 7.105427e-17, z: 0}
        Rotation: {x: 0.000000048428774, y: -0.00000013969839, z: 0.01645708, w: 0.99986464}
    Middle:
      Bones:
      - Position: {x: 0.09142233, y: -0.0095321555, z: -0.010838781}
        Rotation: {x: -0.037409753, y: 0.6478029, z: 0.7561135, w: 0.085113645}
      - Position: {x: -0.045967426, y: 1.4210854e-16, z: 7.105427e-17}
        Rotation: {x: -0.00000015553087, y: 0.000000067055225, z: -0.049264967, w: 0.99878573}
      - Position: {x: -0.029590597, y: 3.5527136e-17, z: 0}
        Rotation: {x: -0.000000029802322, y: 0.000000013038516, z: -0.00040596724, w: 0.99999994}
    Ring:
      Bones:
      - Position: {x: 0.089531735, y: 0.012713979, z: -0.0018533266}
        Rotation: {x: -0.10180098, y: 0.5692992, z: 0.8152097, w: 0.031114787}
      - Position: {x: -0.038572025, y: 0, z: 7.105427e-17}
        Rotation: {x: -0.000000055879354, y: -0.000000044703484, z: -0.084653914, w: 0.9964104}
      - Position: {x: -0.025775291, y: -1.7763568e-17, z: -1.4210854e-16}
        Rotation: {x: -0.00000007636845, y: 0.000000026077032, z: 0.0053471327, w: 0.99998575}
    Pinky:
      Bones:
      - Position: {x: 0.031271502, y: 0.01906803, z: 0.01150759}
        Rotation: {x: -0.46932158, y: -0.083111495, z: 0.08672836, w: 0.8748188}
      - Position: {x: 0.053570647, y: 0.0024384, z: -0.0014630399}
        Rotation: {x: -0.018676333, y: 0.007348351, z: 0.9961378, w: 0.0854792}
      - Position: {x: -0.03335595, y: 1.4210854e-16, z: -1.4210854e-16}
        Rotation: {x: -0.000000059604645, y: -0.000000109896064, z: 0.03336209, w: 0.99944335}
      - Position: {x: -0.017418223, y: 1.3322676e-16, z: 7.105427e-17}
        Rotation: {x: 0, y: 0, z: -0.04699397, w: 0.9988952}
  RightHand:
    Position: {x: -0, y: 0, z: -0.03}
    Rotation: {x: -0.061628465, y: -0.06162835, z: -0.7044162, w: 0.70441586}
    Thumb:
      Bones:
      - Position: {x: -0.026298406, y: 0.041470297, z: -0.020564148}
        Rotation: {x: 0.3069186, y: 0.9318169, z: 0.15754038, w: 0.11269181}
      - Position: {x: 0.03258824, y: -0, z: -0}
        Rotation: {x: 0.017212339, y: 0.007500209, z: 0.07353306, w: 0.9971161}
      - Position: {x: 0.026371535, y: -1.4210854e-16, z: 1.0658141e-16}
        Rotation: {x: 0.027590483, y: 0.005666053, z: 0.20108539, w: 0.9791688}
    Index:
      Bones:
      - Position: {x: -0.087078705, y: 0.035099912, z: 0.0068139634}
        Rotation: {x: 0.055844635, y: 0.73089284, z: 0.6695575, w: 0.11987428}
      - Position: {x: 0.04157472, y: -0, z: -7.105427e-17}
        Rotation: {x: -0.00000008568168, y: -0.000000052154064, z: -0.059961796, w: 0.9982007}
      - Position: {x: 0.022153005, y: -7.105427e-17, z: -0}
        Rotation: {x: 0.000000048428774, y: -0.00000013969839, z: 0.01645708, w: 0.99986464}
    Middle:
      Bones:
      - Position: {x: -0.09142233, y: 0.0095321555, z: 0.010838781}
        Rotation: {x: -0.037409753, y: 0.6478029, z: 0.7561135, w: 0.085113645}
      - Position: {x: 0.045967426, y: -1.4210854e-16, z: -7.105427e-17}
        Rotation: {x: -0.00000015553087, y: 0.000000067055225, z: -0.049264967, w: 0.99878573}
      - Position: {x: 0.029590597, y: -3.5527136e-17, z: -0}
        Rotation: {x: -0.000000029802322, y: 0.000000013038516, z: -0.00040596724, w: 0.99999994}
    Ring:
      Bones:
      - Position: {x: -0.089531735, y: -0.012713979, z: 0.0018533266}
        Rotation: {x: -0.10180098, y: 0.5692992, z: 0.8152097, w: 0.031114787}
      - Position: {x: 0.038572025, y: -0, z: -7.105427e-17}
        Rotation: {x: -0.000000055879354, y: -0.000000044703484, z: -0.084653914, w: 0.9964104}
      - Position: {x: 0.025775291, y: 1.7763568e-17, z: 1.4210854e-16}
        Rotation: {x: -0.00000007636845, y: 0.000000026077032, z: 0.0053471327, w: 0.99998575}
    Pinky:
      Bones:
      - Position: {x: -0.031271502, y: -0.01906803, z: -0.01150759}
        Rotation: {x: -0.46932158, y: -0.083111495, z: 0.08672836, w: 0.8748188}
      - Position: {x: -0.053570647, y: -0.0024384, z: 0.0014630399}
        Rotation: {x: -0.018676333, y: 0.007348351, z: 0.9961378, w: 0.0854792}
      - Position: {x: 0.03335595, y: -1.4210854e-16, z: 1.4210854e-16}
        Rotation: {x: -0.000000059604645, y: -0.000000109896064, z: 0.03336209, w: 0.99944335}
      - Position: {x: 0.017418223, y: -1.3322676e-16, z: -7.105427e-17}
        Rotation: {x: 0, y: 0, z: -0.04699397, w: 0.9988952}
