%YAML 1.1
%TAG !u! tag:unity3d.com,2011:
--- !u!114 &11400000
MonoBehaviour:
  m_ObjectHideFlags: 0
  m_CorrespondingSourceObject: {fileID: 0}
  m_PrefabInstance: {fileID: 0}
  m_PrefabAsset: {fileID: 0}
  m_GameObject: {fileID: 0}
  m_Enabled: 1
  m_EditorHideFlags: 0
  m_Script: {fileID: 11500000, guid: c60064bc4e8de454e950cab979d454ce, type: 3}
  m_Name: Section 2
  m_EditorClassIdentifier: 
  SectionName: Round Siever
  SectionDescription: Round Lorem ipsum dolor sit amet, consectetur adipiscing elit.
    Cras nisl justo, tincidunt id viverra eu, fringilla ac massa. Fusce eleifend
    est vel faucibus ultricies. Vivamus.
  SectionImage: {fileID: 21300000, guid: 17035c204825f6340a252046ab6476fd, type: 3}
  SubsectionData:
  - {fileID: 11400000, guid: e94e35cfe862b2e4eb7879f0836930bd, type: 2}
  - {fileID: 11400000, guid: 8a622bb03d5a31f4faca512e4c20b1a6, type: 2}
