%YAML 1.1
%TAG !u! tag:unity3d.com,2011:
--- !u!1 &6600670240615180413
GameObject:
  m_ObjectHideFlags: 0
  m_CorrespondingSourceObject: {fileID: 0}
  m_PrefabInstance: {fileID: 0}
  m_PrefabAsset: {fileID: 0}
  serializedVersion: 6
  m_Component:
  - component: {fileID: 8498406143430003570}
  - component: {fileID: 7017701411751600593}
  m_Layer: 0
  m_Name: CleaningTriggerMeshAdder
  m_TagString: Untagged
  m_Icon: {fileID: 0}
  m_NavMeshLayer: 0
  m_StaticEditorFlags: 0
  m_IsActive: 1
--- !u!4 &8498406143430003570
Transform:
  m_ObjectHideFlags: 0
  m_CorrespondingSourceObject: {fileID: 0}
  m_PrefabInstance: {fileID: 0}
  m_PrefabAsset: {fileID: 0}
  m_GameObject: {fileID: 6600670240615180413}
  m_LocalRotation: {x: 0, y: 0, z: 0, w: 1}
  m_LocalPosition: {x: -0.9386683, y: 1.9726701, z: -1.6609224}
  m_LocalScale: {x: 1, y: 1, z: 1}
  m_Children: []
  m_Father: {fileID: 0}
  m_RootOrder: 0
  m_LocalEulerAnglesHint: {x: 0, y: 0, z: 0}
--- !u!114 &7017701411751600593
MonoBehaviour:
  m_ObjectHideFlags: 0
  m_CorrespondingSourceObject: {fileID: 0}
  m_PrefabInstance: {fileID: 0}
  m_PrefabAsset: {fileID: 0}
  m_GameObject: {fileID: 6600670240615180413}
  m_Enabled: 1
  m_EditorHideFlags: 0
  m_Script: {fileID: 11500000, guid: 7dafde3b5b26a1e47b55e13686d38be6, type: 3}
  m_Name: 
  m_EditorClassIdentifier: 
  cleanTriggerMaterial: {fileID: 2100000, guid: af5947213bab0a74997352a048681c18, type: 2}
  cleaningTriggerMeshManagerPrefab: {fileID: 1253863343659430236, guid: 96cb543aa4c46684b95f32f3c8cec950, type: 3}
  allTriggerGroups: []
  allTriggers: []
