%YAML 1.1
%TAG !u! tag:unity3d.com,2011:
--- !u!114 &11400000
MonoBehaviour:
  m_ObjectHideFlags: 0
  m_CorrespondingSourceObject: {fileID: 0}
  m_PrefabInstance: {fileID: 0}
  m_PrefabAsset: {fileID: 0}
  m_GameObject: {fileID: 0}
  m_Enabled: 1
  m_EditorHideFlags: 0
  m_Script: {fileID: 11500000, guid: 2136a598822d40e40975bb7baa279bf1, type: 3}
  m_Name: 4. Pembongkaran Rotary Siever
  m_EditorClassIdentifier: 
  id: 3
  SubScenarioName: Pembongkaran Rotary Siever
  SubScenarioSprite: {fileID: 21300000, guid: 50957164a0f5ed947a8237e0fc8356b8, type: 3}
  Purpose: Operator memahami proses pembongkaran <i>Rotary Siever</i> serta peralatan
    yang dibutuhkan agar tidak terjadi kecelakaan kerja
  SubScenarioScene: MainScene
  SubScenarioPrefab: {fileID: 3625263159737685005, guid: 8511c78ada603854d970398ac362c3ba, type: 3}
  status: 1
  isLinear: 1
  isSandbox: 0
