%YAML 1.1
%TAG !u! tag:unity3d.com,2011:
--- !u!114 &11400000
MonoBehaviour:
  m_ObjectHideFlags: 0
  m_CorrespondingSourceObject: {fileID: 0}
  m_PrefabInstance: {fileID: 0}
  m_PrefabAsset: {fileID: 0}
  m_GameObject: {fileID: 0}
  m_Enabled: 1
  m_EditorHideFlags: 0
  m_Script: {fileID: 11500000, guid: bbb281ee3bf0b054c82ac2347e9e782c, type: 3}
  m_Name: Default Local Group
  m_EditorClassIdentifier: 
  m_GroupName: Default Local Group
  m_Data:
    m_SerializedData: []
  m_GUID: 9b6cfef19fce8294cb065387a0ddae80
  m_SerializeEntries: []
  m_ReadOnly: 0
  m_Settings: {fileID: 11400000, guid: e02e6746bba5d2147866343168ae36e3, type: 2}
  m_SchemaSet:
    m_Schemas:
    - {fileID: 11400000, guid: 8029042a591225e4eb08b3a99ef58f33, type: 2}
    - {fileID: 11400000, guid: aeecbbb84c3fe5e4f9c5761f2995bb05, type: 2}
