%YAML 1.1
%TAG !u! tag:unity3d.com,2011:
--- !u!114 &11400000
MonoBehaviour:
  m_ObjectHideFlags: 0
  m_CorrespondingSourceObject: {fileID: 0}
  m_PrefabInstance: {fileID: 0}
  m_PrefabAsset: {fileID: 0}
  m_GameObject: {fileID: 0}
  m_Enabled: 1
  m_EditorHideFlags: 0
  m_Script: {fileID: 11500000, guid: a07b5cd0b1b829245bc8c4b6978793e8, type: 3}
  m_Name: Localization Settings
  m_EditorClassIdentifier: 
  m_StartupSelectors:
  - rid: 1453558318918795290
  - rid: 1453558318918795288
  - rid: 1453558318918795289
  m_AvailableLocales:
    rid: 1453558318918795291
  m_AssetDatabase:
    rid: 1453558318918795292
  m_StringDatabase:
    rid: 1453558318918795293
  m_Metadata:
    m_Items: []
  m_ProjectLocaleIdentifier:
    m_Code: en
  m_InitializeSynchronously: 0
  references:
    version: 2
    RefIds:
    - rid: 1453558318918795288
      type: {class: CommandLineLocaleSelector, ns: UnityEngine.Localization.Settings, asm: Unity.Localization}
      data:
        m_CommandLineArgument: -language=
    - rid: 1453558318918795289
      type: {class: SystemLocaleSelector, ns: UnityEngine.Localization.Settings, asm: Unity.Localization}
    - rid: 1453558318918795290
      type: {class: SpecificLocaleSelector, ns: UnityEngine.Localization.Settings, asm: Unity.Localization}
      data:
        m_LocaleId:
          m_Code: en
    - rid: 1453558318918795291
      type: {class: LocalesProvider, ns: UnityEngine.Localization.Settings, asm: Unity.Localization}
    - rid: 1453558318918795292
      type: {class: LocalizedAssetDatabase, ns: UnityEngine.Localization.Settings, asm: Unity.Localization}
      data:
        m_DefaultTableReference:
          m_TableCollectionName: 
        m_UseFallback: 0
    - rid: 1453558318918795293
      type: {class: LocalizedStringDatabase, ns: UnityEngine.Localization.Settings, asm: Unity.Localization}
      data:
        m_DefaultTableReference:
          m_TableCollectionName: 
        m_UseFallback: 0
        m_MissingTranslationState: 1
        m_NoTranslationFoundMessage: No translation found for '{key}' in {table.TableCollectionName}
        m_SmartFormat:
          rid: 1453558318918795294
    - rid: 1453558318918795294
      type: {class: SmartFormatter, ns: UnityEngine.Localization.SmartFormat, asm: Unity.Localization}
      data:
        m_Settings:
          rid: 1453558318918795295
        m_Parser:
          rid: 1453558318918795296
        m_Sources:
        - rid: 1453558318918795297
        - rid: 1453558318918795298
        - rid: 1453558318918795299
        - rid: 1453558318918795300
        - rid: 1453558318918795301
        - rid: 1453558318918795302
        - rid: 1453558318918795303
        m_Formatters:
        - rid: 1453558318918795297
        - rid: 1453558318918795304
        - rid: 1453558318918795305
        - rid: 1453558318918795306
        - rid: 1453558318918795307
        - rid: 1453558318918795308
        - rid: 1453558318918795309
        - rid: 1453558318918795310
        - rid: 1453558318918795311
    - rid: 1453558318918795295
      type: {class: SmartSettings, ns: UnityEngine.Localization.SmartFormat.Core.Settings, asm: Unity.Localization}
      data:
        m_FormatErrorAction: 0
        m_ParseErrorAction: 0
        m_CaseSensitivity: 0
        m_ConvertCharacterStringLiterals: 1
    - rid: 1453558318918795296
      type: {class: Parser, ns: UnityEngine.Localization.SmartFormat.Core.Parsing, asm: Unity.Localization}
      data:
        m_OpeningBrace: 123
        m_ClosingBrace: 125
        m_Settings:
          rid: 1453558318918795295
        m_AlphanumericSelectors: 1
        m_AllowedSelectorChars: _-
        m_Operators: '[]().,'
        m_AlternativeEscaping: 0
        m_AlternativeEscapeChar: 92
    - rid: 1453558318918795297
      type: {class: ListFormatter, ns: UnityEngine.Localization.SmartFormat.Extensions, asm: Unity.Localization}
      data:
        m_Names:
        - list
        - l
        - 
        m_SmartSettings:
          rid: 1453558318918795295
    - rid: 1453558318918795298
      type: {class: PersistentVariablesSource, ns: UnityEngine.Localization.SmartFormat.Extensions, asm: Unity.Localization}
      data:
        m_Groups: []
    - rid: 1453558318918795299
      type: {class: DictionarySource, ns: UnityEngine.Localization.SmartFormat.Extensions, asm: Unity.Localization}
    - rid: 1453558318918795300
      type: {class: ValueTupleSource, ns: UnityEngine.Localization.SmartFormat.Extensions, asm: Unity.Localization}
    - rid: 1453558318918795301
      type: {class: XmlSource, ns: UnityEngine.Localization.SmartFormat.Extensions, asm: Unity.Localization}
    - rid: 1453558318918795302
      type: {class: ReflectionSource, ns: UnityEngine.Localization.SmartFormat.Extensions, asm: Unity.Localization}
    - rid: 1453558318918795303
      type: {class: DefaultSource, ns: UnityEngine.Localization.SmartFormat.Extensions, asm: Unity.Localization}
    - rid: 1453558318918795304
      type: {class: PluralLocalizationFormatter, ns: UnityEngine.Localization.SmartFormat.Extensions, asm: Unity.Localization}
      data:
        m_Names:
        - plural
        - p
        - 
        m_DefaultTwoLetterISOLanguageName: en
    - rid: 1453558318918795305
      type: {class: ConditionalFormatter, ns: UnityEngine.Localization.SmartFormat.Extensions, asm: Unity.Localization}
      data:
        m_Names:
        - conditional
        - cond
        - 
    - rid: 1453558318918795306
      type: {class: TimeFormatter, ns: UnityEngine.Localization.SmartFormat.Extensions, asm: Unity.Localization}
      data:
        m_Names:
        - timespan
        - time
        - t
        - 
        m_DefaultFormatOptions: 4646
    - rid: 1453558318918795307
      type: {class: XElementFormatter, ns: UnityEngine.Localization.SmartFormat.Extensions, asm: Unity.Localization}
      data:
        m_Names:
        - xelement
        - xml
        - x
        - 
    - rid: 1453558318918795308
      type: {class: ChooseFormatter, ns: UnityEngine.Localization.SmartFormat.Extensions, asm: Unity.Localization}
      data:
        m_Names:
        - choose
        - c
        m_SplitChar: 124
    - rid: 1453558318918795309
      type: {class: SubStringFormatter, ns: UnityEngine.Localization.SmartFormat.Extensions, asm: Unity.Localization}
      data:
        m_Names:
        - substr
        m_ParameterDelimiter: 44
        m_NullDisplayString: (null)
        m_OutOfRangeBehavior: 0
    - rid: 1453558318918795310
      type: {class: IsMatchFormatter, ns: UnityEngine.Localization.SmartFormat.Extensions, asm: Unity.Localization}
      data:
        m_Names:
        - ismatch
    - rid: 1453558318918795311
      type: {class: DefaultFormatter, ns: UnityEngine.Localization.SmartFormat.Extensions, asm: Unity.Localization}
      data:
        m_Names:
        - default
        - d
        - 
