%YAML 1.1
%TAG !u! tag:unity3d.com,2011:
--- !u!1001 &5870788199252446800
PrefabInstance:
  m_ObjectHideFlags: 0
  serializedVersion: 2
  m_Modification:
    serializedVersion: 3
    m_TransformParent: {fileID: 0}
    m_Modifications:
    - target: {fileID: 136352019563052587, guid: f5c9c2238080ae94fa68f6971d52c4a4, type: 3}
      propertyPath: serializationData.Prefab
      value: 
      objectReference: {fileID: 136352019563052587, guid: f5c9c2238080ae94fa68f6971d52c4a4, type: 3}
    - target: {fileID: 206664559850997470, guid: f5c9c2238080ae94fa68f6971d52c4a4, type: 3}
      propertyPath: serializationData.Prefab
      value: 
      objectReference: {fileID: 206664559850997470, guid: f5c9c2238080ae94fa68f6971d52c4a4, type: 3}
    - target: {fileID: 545559773479340831, guid: f5c9c2238080ae94fa68f6971d52c4a4, type: 3}
      propertyPath: m_SizeDelta.x
      value: 0
      objectReference: {fileID: 0}
    - target: {fileID: 545559773479340831, guid: f5c9c2238080ae94fa68f6971d52c4a4, type: 3}
      propertyPath: m_SizeDelta.y
      value: 0
      objectReference: {fileID: 0}
    - target: {fileID: 564283013070031438, guid: f5c9c2238080ae94fa68f6971d52c4a4, type: 3}
      propertyPath: serializationData.Prefab
      value: 
      objectReference: {fileID: 564283013070031438, guid: f5c9c2238080ae94fa68f6971d52c4a4, type: 3}
    - target: {fileID: 788631128495721595, guid: f5c9c2238080ae94fa68f6971d52c4a4, type: 3}
      propertyPath: serializationData.Prefab
      value: 
      objectReference: {fileID: 788631128495721595, guid: f5c9c2238080ae94fa68f6971d52c4a4, type: 3}
    - target: {fileID: 1425804866548652594, guid: f5c9c2238080ae94fa68f6971d52c4a4, type: 3}
      propertyPath: m_AnchorMax.y
      value: 0
      objectReference: {fileID: 0}
    - target: {fileID: 1425804866548652594, guid: f5c9c2238080ae94fa68f6971d52c4a4, type: 3}
      propertyPath: m_AnchorMin.y
      value: 0
      objectReference: {fileID: 0}
    - target: {fileID: 1425804866548652594, guid: f5c9c2238080ae94fa68f6971d52c4a4, type: 3}
      propertyPath: m_AnchoredPosition.x
      value: 0
      objectReference: {fileID: 0}
    - target: {fileID: 1425804866548652594, guid: f5c9c2238080ae94fa68f6971d52c4a4, type: 3}
      propertyPath: m_AnchoredPosition.y
      value: 0
      objectReference: {fileID: 0}
    - target: {fileID: 1562468336734587319, guid: f5c9c2238080ae94fa68f6971d52c4a4, type: 3}
      propertyPath: m_SizeDelta.x
      value: 0
      objectReference: {fileID: 0}
    - target: {fileID: 1562468336734587319, guid: f5c9c2238080ae94fa68f6971d52c4a4, type: 3}
      propertyPath: m_SizeDelta.y
      value: 0
      objectReference: {fileID: 0}
    - target: {fileID: 1785777618588298998, guid: f5c9c2238080ae94fa68f6971d52c4a4, type: 3}
      propertyPath: serializationData.Prefab
      value: 
      objectReference: {fileID: 1785777618588298998, guid: f5c9c2238080ae94fa68f6971d52c4a4, type: 3}
    - target: {fileID: 2142645276775488288, guid: f5c9c2238080ae94fa68f6971d52c4a4, type: 3}
      propertyPath: m_text
      value: MC9
      objectReference: {fileID: 0}
    - target: {fileID: 2142645276775488288, guid: f5c9c2238080ae94fa68f6971d52c4a4, type: 3}
      propertyPath: m_fontSize
      value: 3.35
      objectReference: {fileID: 0}
    - target: {fileID: 3079346400748068213, guid: f5c9c2238080ae94fa68f6971d52c4a4, type: 3}
      propertyPath: m_AnchorMax.y
      value: 0
      objectReference: {fileID: 0}
    - target: {fileID: 3079346400748068213, guid: f5c9c2238080ae94fa68f6971d52c4a4, type: 3}
      propertyPath: m_AnchorMin.y
      value: 0
      objectReference: {fileID: 0}
    - target: {fileID: 3079346400748068213, guid: f5c9c2238080ae94fa68f6971d52c4a4, type: 3}
      propertyPath: m_AnchoredPosition.x
      value: 0
      objectReference: {fileID: 0}
    - target: {fileID: 3079346400748068213, guid: f5c9c2238080ae94fa68f6971d52c4a4, type: 3}
      propertyPath: m_AnchoredPosition.y
      value: 0
      objectReference: {fileID: 0}
    - target: {fileID: 3087731913945499308, guid: f5c9c2238080ae94fa68f6971d52c4a4, type: 3}
      propertyPath: m_AnchorMax.y
      value: 0
      objectReference: {fileID: 0}
    - target: {fileID: 3087731913945499308, guid: f5c9c2238080ae94fa68f6971d52c4a4, type: 3}
      propertyPath: m_AnchorMin.y
      value: 0
      objectReference: {fileID: 0}
    - target: {fileID: 3087731913945499308, guid: f5c9c2238080ae94fa68f6971d52c4a4, type: 3}
      propertyPath: m_AnchoredPosition.x
      value: 0
      objectReference: {fileID: 0}
    - target: {fileID: 3087731913945499308, guid: f5c9c2238080ae94fa68f6971d52c4a4, type: 3}
      propertyPath: m_AnchoredPosition.y
      value: 0
      objectReference: {fileID: 0}
    - target: {fileID: 3243734244165754250, guid: f5c9c2238080ae94fa68f6971d52c4a4, type: 3}
      propertyPath: m_text
      value: Cari 3 barang yang berada di tempat yang bukan seharusnya
      objectReference: {fileID: 0}
    - target: {fileID: 3412228499741794632, guid: f5c9c2238080ae94fa68f6971d52c4a4, type: 3}
      propertyPath: sceneDestinationName
      value: LobbyScene - Harda - NoSplash N
      objectReference: {fileID: 0}
    - target: {fileID: 3773659157419879119, guid: f5c9c2238080ae94fa68f6971d52c4a4, type: 3}
      propertyPath: serializationData.Prefab
      value: 
      objectReference: {fileID: 3773659157419879119, guid: f5c9c2238080ae94fa68f6971d52c4a4, type: 3}
    - target: {fileID: 3784416837751630394, guid: f5c9c2238080ae94fa68f6971d52c4a4, type: 3}
      propertyPath: m_OnClick.m_PersistentCalls.m_Calls.Array.data[0].m_Arguments.m_ObjectArgument
      value: 
      objectReference: {fileID: 11400000, guid: 18b377f5f52874f47a1764c3a6105354, type: 2}
    - target: {fileID: 4369847820608803167, guid: f5c9c2238080ae94fa68f6971d52c4a4, type: 3}
      propertyPath: enString
      value: Find 3 objects that are placed incorrectly
      objectReference: {fileID: 0}
    - target: {fileID: 4369847820608803167, guid: f5c9c2238080ae94fa68f6971d52c4a4, type: 3}
      propertyPath: idString
      value: Carilah 3 benda yang berada pada tempat yang kurang tepat
      objectReference: {fileID: 0}
    - target: {fileID: 4676415780271599095, guid: f5c9c2238080ae94fa68f6971d52c4a4, type: 3}
      propertyPath: serializationData.Prefab
      value: 
      objectReference: {fileID: 4676415780271599095, guid: f5c9c2238080ae94fa68f6971d52c4a4, type: 3}
    - target: {fileID: 4921533443936143438, guid: f5c9c2238080ae94fa68f6971d52c4a4, type: 3}
      propertyPath: sceneViewId
      value: 0
      objectReference: {fileID: 0}
    - target: {fileID: 4921533443936143474, guid: f5c9c2238080ae94fa68f6971d52c4a4, type: 3}
      propertyPath: serializationData.Prefab
      value: 
      objectReference: {fileID: 4921533443936143474, guid: f5c9c2238080ae94fa68f6971d52c4a4, type: 3}
    - target: {fileID: 4921533444015392556, guid: f5c9c2238080ae94fa68f6971d52c4a4, type: 3}
      propertyPath: serializationData.Prefab
      value: 
      objectReference: {fileID: 4921533444015392556, guid: f5c9c2238080ae94fa68f6971d52c4a4, type: 3}
    - target: {fileID: 4921533444015392557, guid: f5c9c2238080ae94fa68f6971d52c4a4, type: 3}
      propertyPath: m_RootOrder
      value: 0
      objectReference: {fileID: 0}
    - target: {fileID: 4921533444015392557, guid: f5c9c2238080ae94fa68f6971d52c4a4, type: 3}
      propertyPath: m_LocalPosition.x
      value: 0
      objectReference: {fileID: 0}
    - target: {fileID: 4921533444015392557, guid: f5c9c2238080ae94fa68f6971d52c4a4, type: 3}
      propertyPath: m_LocalPosition.y
      value: 0
      objectReference: {fileID: 0}
    - target: {fileID: 4921533444015392557, guid: f5c9c2238080ae94fa68f6971d52c4a4, type: 3}
      propertyPath: m_LocalPosition.z
      value: 0
      objectReference: {fileID: 0}
    - target: {fileID: 4921533444015392557, guid: f5c9c2238080ae94fa68f6971d52c4a4, type: 3}
      propertyPath: m_LocalRotation.w
      value: 1
      objectReference: {fileID: 0}
    - target: {fileID: 4921533444015392557, guid: f5c9c2238080ae94fa68f6971d52c4a4, type: 3}
      propertyPath: m_LocalRotation.x
      value: 0
      objectReference: {fileID: 0}
    - target: {fileID: 4921533444015392557, guid: f5c9c2238080ae94fa68f6971d52c4a4, type: 3}
      propertyPath: m_LocalRotation.y
      value: 0
      objectReference: {fileID: 0}
    - target: {fileID: 4921533444015392557, guid: f5c9c2238080ae94fa68f6971d52c4a4, type: 3}
      propertyPath: m_LocalRotation.z
      value: 0
      objectReference: {fileID: 0}
    - target: {fileID: 4921533444015392557, guid: f5c9c2238080ae94fa68f6971d52c4a4, type: 3}
      propertyPath: m_LocalEulerAnglesHint.x
      value: 0
      objectReference: {fileID: 0}
    - target: {fileID: 4921533444015392557, guid: f5c9c2238080ae94fa68f6971d52c4a4, type: 3}
      propertyPath: m_LocalEulerAnglesHint.y
      value: 0
      objectReference: {fileID: 0}
    - target: {fileID: 4921533444015392557, guid: f5c9c2238080ae94fa68f6971d52c4a4, type: 3}
      propertyPath: m_LocalEulerAnglesHint.z
      value: 0
      objectReference: {fileID: 0}
    - target: {fileID: 4921533444015392558, guid: f5c9c2238080ae94fa68f6971d52c4a4, type: 3}
      propertyPath: m_Name
      value: 9 normal
      objectReference: {fileID: 0}
    - target: {fileID: 4921533444015392559, guid: f5c9c2238080ae94fa68f6971d52c4a4, type: 3}
      propertyPath: sceneViewId
      value: 0
      objectReference: {fileID: 0}
    - target: {fileID: 4921533444171379617, guid: f5c9c2238080ae94fa68f6971d52c4a4, type: 3}
      propertyPath: sceneViewId
      value: 0
      objectReference: {fileID: 0}
    - target: {fileID: 4921533444171379621, guid: f5c9c2238080ae94fa68f6971d52c4a4, type: 3}
      propertyPath: serializationData.Prefab
      value: 
      objectReference: {fileID: 4921533444171379621, guid: f5c9c2238080ae94fa68f6971d52c4a4, type: 3}
    - target: {fileID: 4921533444493218615, guid: f5c9c2238080ae94fa68f6971d52c4a4, type: 3}
      propertyPath: sceneViewId
      value: 0
      objectReference: {fileID: 0}
    - target: {fileID: 4921533444493218619, guid: f5c9c2238080ae94fa68f6971d52c4a4, type: 3}
      propertyPath: serializationData.Prefab
      value: 
      objectReference: {fileID: 4921533444493218619, guid: f5c9c2238080ae94fa68f6971d52c4a4, type: 3}
    - target: {fileID: 4921533444496799949, guid: f5c9c2238080ae94fa68f6971d52c4a4, type: 3}
      propertyPath: sceneViewId
      value: 0
      objectReference: {fileID: 0}
    - target: {fileID: 4921533444496799985, guid: f5c9c2238080ae94fa68f6971d52c4a4, type: 3}
      propertyPath: serializationData.Prefab
      value: 
      objectReference: {fileID: 4921533444496799985, guid: f5c9c2238080ae94fa68f6971d52c4a4, type: 3}
    - target: {fileID: 4921533444716927128, guid: f5c9c2238080ae94fa68f6971d52c4a4, type: 3}
      propertyPath: sceneViewId
      value: 0
      objectReference: {fileID: 0}
    - target: {fileID: 4921533444716927132, guid: f5c9c2238080ae94fa68f6971d52c4a4, type: 3}
      propertyPath: serializationData.Prefab
      value: 
      objectReference: {fileID: 4921533444716927132, guid: f5c9c2238080ae94fa68f6971d52c4a4, type: 3}
    - target: {fileID: 4921533444827633469, guid: f5c9c2238080ae94fa68f6971d52c4a4, type: 3}
      propertyPath: serializationData.Prefab
      value: 
      objectReference: {fileID: 4921533444827633469, guid: f5c9c2238080ae94fa68f6971d52c4a4, type: 3}
    - target: {fileID: 4921533445386968210, guid: f5c9c2238080ae94fa68f6971d52c4a4, type: 3}
      propertyPath: sceneViewId
      value: 0
      objectReference: {fileID: 0}
    - target: {fileID: 4921533445386968214, guid: f5c9c2238080ae94fa68f6971d52c4a4, type: 3}
      propertyPath: serializationData.Prefab
      value: 
      objectReference: {fileID: 4921533445386968214, guid: f5c9c2238080ae94fa68f6971d52c4a4, type: 3}
    - target: {fileID: 4942120863453917725, guid: f5c9c2238080ae94fa68f6971d52c4a4, type: 3}
      propertyPath: m_LocalPosition.x
      value: -12.243
      objectReference: {fileID: 0}
    - target: {fileID: 4942120863453917725, guid: f5c9c2238080ae94fa68f6971d52c4a4, type: 3}
      propertyPath: m_LocalPosition.y
      value: 0.183
      objectReference: {fileID: 0}
    - target: {fileID: 4942120863453917725, guid: f5c9c2238080ae94fa68f6971d52c4a4, type: 3}
      propertyPath: m_LocalPosition.z
      value: 13.76
      objectReference: {fileID: 0}
    - target: {fileID: 4978620869643314399, guid: f5c9c2238080ae94fa68f6971d52c4a4, type: 3}
      propertyPath: serializationData.Prefab
      value: 
      objectReference: {fileID: 4978620869643314399, guid: f5c9c2238080ae94fa68f6971d52c4a4, type: 3}
    - target: {fileID: 5507930513362978423, guid: f5c9c2238080ae94fa68f6971d52c4a4, type: 3}
      propertyPath: m_text
      value: MC9
      objectReference: {fileID: 0}
    - target: {fileID: 5564582508118695113, guid: f5c9c2238080ae94fa68f6971d52c4a4, type: 3}
      propertyPath: m_LocalPosition.x
      value: -20.047
      objectReference: {fileID: 0}
    - target: {fileID: 5564582508118695113, guid: f5c9c2238080ae94fa68f6971d52c4a4, type: 3}
      propertyPath: m_LocalPosition.y
      value: 0.405
      objectReference: {fileID: 0}
    - target: {fileID: 5564582508118695113, guid: f5c9c2238080ae94fa68f6971d52c4a4, type: 3}
      propertyPath: m_LocalPosition.z
      value: 15.506
      objectReference: {fileID: 0}
    - target: {fileID: 5648915038478377617, guid: f5c9c2238080ae94fa68f6971d52c4a4, type: 3}
      propertyPath: m_text
      value: Carilah 3 benda yang berada pada tempat yang kurang tepat
      objectReference: {fileID: 0}
    - target: {fileID: 6095463450344502955, guid: f5c9c2238080ae94fa68f6971d52c4a4, type: 3}
      propertyPath: serializationData.Prefab
      value: 
      objectReference: {fileID: 6095463450344502955, guid: f5c9c2238080ae94fa68f6971d52c4a4, type: 3}
    - target: {fileID: 6191394596809959243, guid: f5c9c2238080ae94fa68f6971d52c4a4, type: 3}
      propertyPath: serializationData.Prefab
      value: 
      objectReference: {fileID: 6191394596809959243, guid: f5c9c2238080ae94fa68f6971d52c4a4, type: 3}
    - target: {fileID: 6298703265207841686, guid: f5c9c2238080ae94fa68f6971d52c4a4, type: 3}
      propertyPath: serializationData.Prefab
      value: 
      objectReference: {fileID: 6298703265207841686, guid: f5c9c2238080ae94fa68f6971d52c4a4, type: 3}
    - target: {fileID: 6471955430394008624, guid: f5c9c2238080ae94fa68f6971d52c4a4, type: 3}
      propertyPath: m_AnchorMax.y
      value: 0
      objectReference: {fileID: 0}
    - target: {fileID: 6471955430394008624, guid: f5c9c2238080ae94fa68f6971d52c4a4, type: 3}
      propertyPath: m_AnchorMin.y
      value: 0
      objectReference: {fileID: 0}
    - target: {fileID: 6471955430394008624, guid: f5c9c2238080ae94fa68f6971d52c4a4, type: 3}
      propertyPath: m_AnchoredPosition.x
      value: 0
      objectReference: {fileID: 0}
    - target: {fileID: 6471955430394008624, guid: f5c9c2238080ae94fa68f6971d52c4a4, type: 3}
      propertyPath: m_AnchoredPosition.y
      value: 0
      objectReference: {fileID: 0}
    - target: {fileID: 6857936520130358334, guid: f5c9c2238080ae94fa68f6971d52c4a4, type: 3}
      propertyPath: m_text
      value: Pindahkan masing-masing benda ke tempat yang seharusnya
      objectReference: {fileID: 0}
    - target: {fileID: 6924396237574648703, guid: f5c9c2238080ae94fa68f6971d52c4a4, type: 3}
      propertyPath: serializationData.Prefab
      value: 
      objectReference: {fileID: 6924396237574648703, guid: f5c9c2238080ae94fa68f6971d52c4a4, type: 3}
    - target: {fileID: 7115768233116756875, guid: f5c9c2238080ae94fa68f6971d52c4a4, type: 3}
      propertyPath: m_LocalPosition.x
      value: -15.792
      objectReference: {fileID: 0}
    - target: {fileID: 7115768233116756875, guid: f5c9c2238080ae94fa68f6971d52c4a4, type: 3}
      propertyPath: m_LocalPosition.y
      value: 0.469
      objectReference: {fileID: 0}
    - target: {fileID: 7115768233116756875, guid: f5c9c2238080ae94fa68f6971d52c4a4, type: 3}
      propertyPath: m_LocalPosition.z
      value: 9.527
      objectReference: {fileID: 0}
    - target: {fileID: 7424677354647476365, guid: f5c9c2238080ae94fa68f6971d52c4a4, type: 3}
      propertyPath: m_AnchoredPosition.y
      value: 6746917
      objectReference: {fileID: 0}
    - target: {fileID: 7522237348340711658, guid: f5c9c2238080ae94fa68f6971d52c4a4, type: 3}
      propertyPath: m_AnchorMax.y
      value: 0
      objectReference: {fileID: 0}
    - target: {fileID: 7522237348340711658, guid: f5c9c2238080ae94fa68f6971d52c4a4, type: 3}
      propertyPath: m_AnchorMin.y
      value: 0
      objectReference: {fileID: 0}
    - target: {fileID: 7522237348340711658, guid: f5c9c2238080ae94fa68f6971d52c4a4, type: 3}
      propertyPath: m_AnchoredPosition.x
      value: 0
      objectReference: {fileID: 0}
    - target: {fileID: 7522237348340711658, guid: f5c9c2238080ae94fa68f6971d52c4a4, type: 3}
      propertyPath: m_AnchoredPosition.y
      value: 0
      objectReference: {fileID: 0}
    - target: {fileID: 7538240752998368207, guid: f5c9c2238080ae94fa68f6971d52c4a4, type: 3}
      propertyPath: serializationData.Prefab
      value: 
      objectReference: {fileID: 7538240752998368207, guid: f5c9c2238080ae94fa68f6971d52c4a4, type: 3}
    - target: {fileID: 7627128310664072719, guid: f5c9c2238080ae94fa68f6971d52c4a4, type: 3}
      propertyPath: m_AnchorMax.y
      value: 0
      objectReference: {fileID: 0}
    - target: {fileID: 7627128310664072719, guid: f5c9c2238080ae94fa68f6971d52c4a4, type: 3}
      propertyPath: m_AnchorMin.y
      value: 0
      objectReference: {fileID: 0}
    - target: {fileID: 7627128310664072719, guid: f5c9c2238080ae94fa68f6971d52c4a4, type: 3}
      propertyPath: m_AnchoredPosition.x
      value: 0
      objectReference: {fileID: 0}
    - target: {fileID: 7627128310664072719, guid: f5c9c2238080ae94fa68f6971d52c4a4, type: 3}
      propertyPath: m_AnchoredPosition.y
      value: 0
      objectReference: {fileID: 0}
    - target: {fileID: 7750825457395836049, guid: f5c9c2238080ae94fa68f6971d52c4a4, type: 3}
      propertyPath: m_OnClick.m_PersistentCalls.m_Calls.Array.data[0].m_Arguments.m_ObjectArgument
      value: 
      objectReference: {fileID: 11400000, guid: 65dbeb65951b45f47ab3aa1dd1b5a337, type: 2}
    - target: {fileID: 7915023803907664447, guid: f5c9c2238080ae94fa68f6971d52c4a4, type: 3}
      propertyPath: m_SizeDelta.x
      value: 0
      objectReference: {fileID: 0}
    - target: {fileID: 7915023803907664447, guid: f5c9c2238080ae94fa68f6971d52c4a4, type: 3}
      propertyPath: m_SizeDelta.y
      value: 0
      objectReference: {fileID: 0}
    - target: {fileID: 8188913279249379951, guid: f5c9c2238080ae94fa68f6971d52c4a4, type: 3}
      propertyPath: m_OnClick.m_PersistentCalls.m_Calls.Array.data[0].m_Arguments.m_ObjectArgument
      value: 
      objectReference: {fileID: 11400000, guid: 18b377f5f52874f47a1764c3a6105354, type: 2}
    - target: {fileID: 8188913279249379951, guid: f5c9c2238080ae94fa68f6971d52c4a4, type: 3}
      propertyPath: m_OnClick.m_PersistentCalls.m_Calls.Array.data[1].m_Arguments.m_ObjectArgument
      value: 
      objectReference: {fileID: 11400000, guid: 18b377f5f52874f47a1764c3a6105354, type: 2}
    - target: {fileID: 8622351892791701889, guid: f5c9c2238080ae94fa68f6971d52c4a4, type: 3}
      propertyPath: serializationData.Prefab
      value: 
      objectReference: {fileID: 8622351892791701889, guid: f5c9c2238080ae94fa68f6971d52c4a4, type: 3}
    - target: {fileID: 8912618571105583078, guid: f5c9c2238080ae94fa68f6971d52c4a4, type: 3}
      propertyPath: serializationData.Prefab
      value: 
      objectReference: {fileID: 8912618571105583078, guid: f5c9c2238080ae94fa68f6971d52c4a4, type: 3}
    - target: {fileID: 9121626141378280479, guid: f5c9c2238080ae94fa68f6971d52c4a4, type: 3}
      propertyPath: sceneDestinationName
      value: LobbyScene - Harda - NoSplash N
      objectReference: {fileID: 0}
    m_RemovedComponents: []
    m_RemovedGameObjects: []
    m_AddedGameObjects: []
    m_AddedComponents: []
  m_SourcePrefab: {fileID: 100100000, guid: f5c9c2238080ae94fa68f6971d52c4a4, type: 3}
