%YAML 1.1
%TAG !u! tag:unity3d.com,2011:
--- !u!114 &11400000
MonoBehaviour:
  m_ObjectHideFlags: 0
  m_CorrespondingSourceObject: {fileID: 0}
  m_PrefabInstance: {fileID: 0}
  m_PrefabAsset: {fileID: 0}
  m_GameObject: {fileID: 0}
  m_Enabled: 1
  m_EditorHideFlags: 0
  m_Script: {fileID: 11500000, guid: 7406f37c286a012488bcfd5f1812789c, type: 3}
  m_Name: Dementia Instruction Data 3
  m_EditorClassIdentifier: 
  titleCode: C3
  titleText: Cari Kata
  instruction:
  - instructionText: Perhatikan  ketiga foto yang berada di meja
    instructionImage: {fileID: 0}
  - instructionText: 'Temukan kata-kata pada

      teka-teki yang tersedia, sesuai
      gambar yang ada pada

      ketiga foto'
    instructionImage: {fileID: 0}
