%YAML 1.1
%TAG !u! tag:unity3d.com,2011:
--- !u!114 &11400000
MonoBehaviour:
  m_ObjectHideFlags: 0
  m_CorrespondingSourceObject: {fileID: 0}
  m_PrefabInstance: {fileID: 0}
  m_PrefabAsset: {fileID: 0}
  m_GameObject: {fileID: 0}
  m_Enabled: 1
  m_EditorHideFlags: 0
  m_Script: {fileID: 11500000, guid: 0b6c636b88b522c46945085f6637e72c, type: 3}
  m_Name: Scenario_Multiplayer
  m_EditorClassIdentifier: 
  ScenarioName: Scenario Multiplayer
  ScenarioSprite: {fileID: 0}
  SubScenariolist:
  - {fileID: 11400000, guid: f5cd565c1e05a454aba6138b5ce64d54, type: 2}
