%YAML 1.1
%TAG !u! tag:unity3d.com,2011:
--- !u!114 &11400000
MonoBehaviour:
  m_ObjectHideFlags: 0
  m_CorrespondingSourceObject: {fileID: 0}
  m_PrefabInstance: {fileID: 0}
  m_PrefabAsset: {fileID: 0}
  m_GameObject: {fileID: 0}
  m_Enabled: 1
  m_EditorHideFlags: 0
  m_Script: {fileID: 11500000, guid: 93e35967d69caf544b0723989b890e2b, type: 3}
  m_Name: Clock
  m_EditorClassIdentifier: 
  meshList:
  - {fileID: -5053925668127403250, guid: 2dcda82556a6c9a4cbfc7e305b6f4d26, type: 3}
  meshScaleList:
  - {x: 200.00003, y: 199.99997, z: 200}
  meshPosList:
  - {x: 0, y: 0, z: 0}
  meshRotList:
  - {x: -0, y: -0, z: -1.1641532e-10, w: 1}
