%YAML 1.1
%TAG !u! tag:unity3d.com,2011:
--- !u!1 &8699676336529676731
GameObject:
  m_ObjectHideFlags: 0
  m_CorrespondingSourceObject: {fileID: 0}
  m_PrefabInstance: {fileID: 0}
  m_PrefabAsset: {fileID: 0}
  serializedVersion: 6
  m_Component:
  - component: {fileID: 8699676336529676709}
  - component: {fileID: 8699676336529676708}
  m_Layer: 0
  m_Name: Paint Manager
  m_TagString: Untagged
  m_Icon: {fileID: 0}
  m_NavMeshLayer: 0
  m_StaticEditorFlags: 0
  m_IsActive: 1
--- !u!4 &8699676336529676709
Transform:
  m_ObjectHideFlags: 0
  m_CorrespondingSourceObject: {fileID: 0}
  m_PrefabInstance: {fileID: 0}
  m_PrefabAsset: {fileID: 0}
  m_GameObject: {fileID: 8699676336529676731}
  m_LocalRotation: {x: 0, y: 0, z: 0, w: 1}
  m_LocalPosition: {x: -0.6920816, y: -0.65226936, z: 0.38287184}
  m_LocalScale: {x: 1, y: 1, z: 1}
  m_Children: []
  m_Father: {fileID: 0}
  m_RootOrder: 0
  m_LocalEulerAnglesHint: {x: 0, y: 0, z: 0}
--- !u!114 &8699676336529676708
MonoBehaviour:
  m_ObjectHideFlags: 0
  m_CorrespondingSourceObject: {fileID: 0}
  m_PrefabInstance: {fileID: 0}
  m_PrefabAsset: {fileID: 0}
  m_GameObject: {fileID: 8699676336529676731}
  m_Enabled: 1
  m_EditorHideFlags: 0
  m_Script: {fileID: 11500000, guid: 97807551a49343d4a84e6d24e81cff4f, type: 3}
  m_Name: 
  m_EditorClassIdentifier: 
  texturePaint: {fileID: 4800000, guid: 9472ed3696ab33d4ab23fb2a11915e0c, type: 3}
  extendIslands: {fileID: 4800000, guid: 30512f6167fa0784ab310b688406279d, type: 3}
