%YAML 1.1
%TAG !u! tag:unity3d.com,2011:
--- !u!114 &11400000
MonoBehaviour:
  m_ObjectHideFlags: 0
  m_CorrespondingSourceObject: {fileID: 0}
  m_PrefabInstance: {fileID: 0}
  m_PrefabAsset: {fileID: 0}
  m_GameObject: {fileID: 0}
  m_Enabled: 1
  m_EditorHideFlags: 0
  m_Script: {fileID: 11500000, guid: 93e35967d69caf544b0723989b890e2b, type: 3}
  m_Name: Polaroid
  m_EditorClassIdentifier: 
  meshList:
  - {fileID: 6686269311774189187, guid: 6be3869a0d1fce04782ba5bc59849fb1, type: 3}
  meshScaleList:
  - {x: 300, y: 299.99997, z: 299.99997}
  meshPosList:
  - {x: 0.00020574508, y: 0.083900005, z: 0.0015919963}
  meshRotList:
  - {x: -0.7071068, y: -0.000000029802322, z: -0, w: 0.7071067}
