%YAML 1.1
%TAG !u! tag:unity3d.com,2011:
--- !u!114 &11400000
MonoBehaviour:
  m_ObjectHideFlags: 0
  m_CorrespondingSourceObject: {fileID: 0}
  m_PrefabInstance: {fileID: 0}
  m_PrefabAsset: {fileID: 0}
  m_GameObject: {fileID: 0}
  m_Enabled: 1
  m_EditorHideFlags: 0
  m_Script: {fileID: 11500000, guid: 93e35967d69caf544b0723989b890e2b, type: 3}
  m_Name: Filter Baru Rotary Siever
  m_EditorClassIdentifier: 
  meshList:
  - {fileID: -8067403476912574091, guid: 30fbddb6e0ac0084c8d9aee83ec1fa48, type: 3}
  meshScaleList:
  - {x: 1.0000004, y: 1.0000004, z: 1}
  meshPosList:
  - {x: -3.107, y: 4.397, z: -4.4649596}
  meshRotList:
  - {x: -0, y: -0, z: 0.7411963, w: 0.6712885}
