%YAML 1.1
%TAG !u! tag:unity3d.com,2011:
--- !u!114 &11400000
MonoBehaviour:
  m_ObjectHideFlags: 0
  m_CorrespondingSourceObject: {fileID: 0}
  m_PrefabInstance: {fileID: 0}
  m_PrefabAsset: {fileID: 0}
  m_GameObject: {fileID: 0}
  m_Enabled: 1
  m_EditorHideFlags: 0
  m_Script: {fileID: 11500000, guid: 2136a598822d40e40975bb7baa279bf1, type: 3}
  m_Name: Matematika 1 (normal)
  m_EditorClassIdentifier: 
  id: 0
  SubScenarioName: 
  SubScenarioSprite: {fileID: 0}
  Purpose: 
  SubScenarioScene: MainScene - Harda
  SubScenarioPrefab: {fileID: 3505362788417557510, guid: 77ee843f227cf324e888129de7000534, type: 3}
  status: 0
  isLinear: 1
  isSandbox: 0
