%YAML 1.1
%TAG !u! tag:unity3d.com,2011:
--- !u!114 &11400000
MonoBehaviour:
  m_ObjectHideFlags: 0
  m_CorrespondingSourceObject: {fileID: 0}
  m_PrefabInstance: {fileID: 0}
  m_PrefabAsset: {fileID: 0}
  m_GameObject: {fileID: 0}
  m_Enabled: 1
  m_EditorHideFlags: 0
  m_Script: {fileID: 11500000, guid: 27bbad99e8bc3844fa56f75dae714e4f, type: 3}
  m_Name: 4. Pembersihan Ruangan
  m_EditorClassIdentifier: 
  Title: Pembersihan Ruangan
  Description: Operator mengetahui peralatan apa saja yang dibutuhkan saat proses
    pembersihan <i>Butterfly Valve</i> agar tidak terjadi kecelakaan kerja
  Image: {fileID: 21300000, guid: 50957164a0f5ed947a8237e0fc8356b8, type: 3}
  status: 1
  SubsectionPrefabs: {fileID: 8087903926828077980, guid: d8f86b7fc688a1f49abb4819e4742217, type: 3}
