%YAML 1.1
%TAG !u! tag:unity3d.com,2011:
--- !u!114 &11400000
MonoBehaviour:
  m_ObjectHideFlags: 0
  m_CorrespondingSourceObject: {fileID: 0}
  m_PrefabInstance: {fileID: 0}
  m_PrefabAsset: {fileID: 0}
  m_GameObject: {fileID: 0}
  m_Enabled: 1
  m_EditorHideFlags: 0
  m_Script: {fileID: 11500000, guid: 27bbad99e8bc3844fa56f75dae714e4f, type: 3}
  m_Name: 6. Mengoperasikan Butterfly Valve
  m_EditorClassIdentifier: 
  Title: Mengoperasikan Butterfly Valve
  Description: Operator memahami cara kerja mesin dan safety-nya
  Image: {fileID: 21300000, guid: 50957164a0f5ed947a8237e0fc8356b8, type: 3}
  status: 1
  SubsectionPrefabs: {fileID: 8430990316538210270, guid: 502cf2cd969b61f458be2fecd6e6eabd, type: 3}
