%YAML 1.1
%TAG !u! tag:unity3d.com,2011:
--- !u!1001 &6935148381031854015
PrefabInstance:
  m_ObjectHideFlags: 0
  serializedVersion: 2
  m_Modification:
    serializedVersion: 3
    m_TransformParent: {fileID: 0}
    m_Modifications:
    - target: {fileID: 457909614523519038, guid: 1e17ccadc1ded7c408dce526f106bf5e, type: 3}
      propertyPath: m_OnClick.m_PersistentCalls.m_Calls.Array.data[1].m_MethodName
      value: SetLevelNormal
      objectReference: {fileID: 0}
    - target: {fileID: 1336406955473057327, guid: 1e17ccadc1ded7c408dce526f106bf5e, type: 3}
      propertyPath: quizPrefab
      value: 
      objectReference: {fileID: 6593249330162059184, guid: c626e7eb7bb0bcb40823065c7be9c333, type: 3}
    - target: {fileID: 1853898210412998114, guid: 1e17ccadc1ded7c408dce526f106bf5e, type: 3}
      propertyPath: sceneViewId
      value: 0
      objectReference: {fileID: 0}
    - target: {fileID: 1853898210412998115, guid: 1e17ccadc1ded7c408dce526f106bf5e, type: 3}
      propertyPath: serializationData.Prefab
      value: 
      objectReference: {fileID: 1853898210412998115, guid: 1e17ccadc1ded7c408dce526f106bf5e, type: 3}
    - target: {fileID: 1853898210899708752, guid: 1e17ccadc1ded7c408dce526f106bf5e, type: 3}
      propertyPath: m_RootOrder
      value: 0
      objectReference: {fileID: 0}
    - target: {fileID: 1853898210899708752, guid: 1e17ccadc1ded7c408dce526f106bf5e, type: 3}
      propertyPath: m_LocalPosition.x
      value: 0
      objectReference: {fileID: 0}
    - target: {fileID: 1853898210899708752, guid: 1e17ccadc1ded7c408dce526f106bf5e, type: 3}
      propertyPath: m_LocalPosition.y
      value: 0
      objectReference: {fileID: 0}
    - target: {fileID: 1853898210899708752, guid: 1e17ccadc1ded7c408dce526f106bf5e, type: 3}
      propertyPath: m_LocalPosition.z
      value: 0
      objectReference: {fileID: 0}
    - target: {fileID: 1853898210899708752, guid: 1e17ccadc1ded7c408dce526f106bf5e, type: 3}
      propertyPath: m_LocalRotation.w
      value: 1
      objectReference: {fileID: 0}
    - target: {fileID: 1853898210899708752, guid: 1e17ccadc1ded7c408dce526f106bf5e, type: 3}
      propertyPath: m_LocalRotation.x
      value: 0
      objectReference: {fileID: 0}
    - target: {fileID: 1853898210899708752, guid: 1e17ccadc1ded7c408dce526f106bf5e, type: 3}
      propertyPath: m_LocalRotation.y
      value: 0
      objectReference: {fileID: 0}
    - target: {fileID: 1853898210899708752, guid: 1e17ccadc1ded7c408dce526f106bf5e, type: 3}
      propertyPath: m_LocalRotation.z
      value: 0
      objectReference: {fileID: 0}
    - target: {fileID: 1853898210899708752, guid: 1e17ccadc1ded7c408dce526f106bf5e, type: 3}
      propertyPath: m_LocalEulerAnglesHint.x
      value: 0
      objectReference: {fileID: 0}
    - target: {fileID: 1853898210899708752, guid: 1e17ccadc1ded7c408dce526f106bf5e, type: 3}
      propertyPath: m_LocalEulerAnglesHint.y
      value: 0
      objectReference: {fileID: 0}
    - target: {fileID: 1853898210899708752, guid: 1e17ccadc1ded7c408dce526f106bf5e, type: 3}
      propertyPath: m_LocalEulerAnglesHint.z
      value: 0
      objectReference: {fileID: 0}
    - target: {fileID: 1853898210899708754, guid: 1e17ccadc1ded7c408dce526f106bf5e, type: 3}
      propertyPath: sceneViewId
      value: 0
      objectReference: {fileID: 0}
    - target: {fileID: 1853898210899708755, guid: 1e17ccadc1ded7c408dce526f106bf5e, type: 3}
      propertyPath: serializationData.Prefab
      value: 
      objectReference: {fileID: 1853898210899708755, guid: 1e17ccadc1ded7c408dce526f106bf5e, type: 3}
    - target: {fileID: 1853898210899708757, guid: 1e17ccadc1ded7c408dce526f106bf5e, type: 3}
      propertyPath: m_Name
      value: 16 normal
      objectReference: {fileID: 0}
    - target: {fileID: 2966744170328680743, guid: 1e17ccadc1ded7c408dce526f106bf5e, type: 3}
      propertyPath: m_text
      value: MC16
      objectReference: {fileID: 0}
    - target: {fileID: 3060250833458457839, guid: 1e17ccadc1ded7c408dce526f106bf5e, type: 3}
      propertyPath: m_AnchorMax.y
      value: 0
      objectReference: {fileID: 0}
    - target: {fileID: 3060250833458457839, guid: 1e17ccadc1ded7c408dce526f106bf5e, type: 3}
      propertyPath: m_AnchorMin.y
      value: 0
      objectReference: {fileID: 0}
    - target: {fileID: 3060250833458457839, guid: 1e17ccadc1ded7c408dce526f106bf5e, type: 3}
      propertyPath: m_AnchoredPosition.x
      value: 0
      objectReference: {fileID: 0}
    - target: {fileID: 3060250833458457839, guid: 1e17ccadc1ded7c408dce526f106bf5e, type: 3}
      propertyPath: m_AnchoredPosition.y
      value: 0
      objectReference: {fileID: 0}
    - target: {fileID: 3154043804253757962, guid: 1e17ccadc1ded7c408dce526f106bf5e, type: 3}
      propertyPath: m_AnchorMax.y
      value: 0
      objectReference: {fileID: 0}
    - target: {fileID: 3154043804253757962, guid: 1e17ccadc1ded7c408dce526f106bf5e, type: 3}
      propertyPath: m_AnchorMin.y
      value: 0
      objectReference: {fileID: 0}
    - target: {fileID: 3154043804253757962, guid: 1e17ccadc1ded7c408dce526f106bf5e, type: 3}
      propertyPath: m_AnchoredPosition.x
      value: 0
      objectReference: {fileID: 0}
    - target: {fileID: 3154043804253757962, guid: 1e17ccadc1ded7c408dce526f106bf5e, type: 3}
      propertyPath: m_AnchoredPosition.y
      value: 0
      objectReference: {fileID: 0}
    - target: {fileID: 3444051802956842554, guid: 1e17ccadc1ded7c408dce526f106bf5e, type: 3}
      propertyPath: m_SizeDelta.x
      value: 0
      objectReference: {fileID: 0}
    - target: {fileID: 3444051802956842554, guid: 1e17ccadc1ded7c408dce526f106bf5e, type: 3}
      propertyPath: m_SizeDelta.y
      value: 0
      objectReference: {fileID: 0}
    - target: {fileID: 4251207528998640002, guid: 1e17ccadc1ded7c408dce526f106bf5e, type: 3}
      propertyPath: m_AnchoredPosition.y
      value: 8014587.5
      objectReference: {fileID: 0}
    - target: {fileID: 4362559006282141722, guid: 1e17ccadc1ded7c408dce526f106bf5e, type: 3}
      propertyPath: sceneDestinationName
      value: LobbyScene - Harda - NoSplash N
      objectReference: {fileID: 0}
    - target: {fileID: 5012046041912878874, guid: 1e17ccadc1ded7c408dce526f106bf5e, type: 3}
      propertyPath: m_SizeDelta.x
      value: 0
      objectReference: {fileID: 0}
    - target: {fileID: 5012046041912878874, guid: 1e17ccadc1ded7c408dce526f106bf5e, type: 3}
      propertyPath: m_SizeDelta.y
      value: 0
      objectReference: {fileID: 0}
    - target: {fileID: 5332627245657558552, guid: 1e17ccadc1ded7c408dce526f106bf5e, type: 3}
      propertyPath: sceneDestinationName
      value: LobbyScene - Harda - NoSplash N
      objectReference: {fileID: 0}
    - target: {fileID: 5359755508146546871, guid: 1e17ccadc1ded7c408dce526f106bf5e, type: 3}
      propertyPath: quizPrefab
      value: 
      objectReference: {fileID: 1789932232353926192, guid: 517dbaaed22668a4ab7c57d9628665ba, type: 3}
    - target: {fileID: 5449725820299933905, guid: 1e17ccadc1ded7c408dce526f106bf5e, type: 3}
      propertyPath: m_OnClick.m_PersistentCalls.m_Calls.Array.data[1].m_MethodName
      value: SetLevelNormal
      objectReference: {fileID: 0}
    - target: {fileID: 5896640246791271991, guid: 1e17ccadc1ded7c408dce526f106bf5e, type: 3}
      propertyPath: m_AnchorMax.y
      value: 0
      objectReference: {fileID: 0}
    - target: {fileID: 5896640246791271991, guid: 1e17ccadc1ded7c408dce526f106bf5e, type: 3}
      propertyPath: m_AnchorMin.y
      value: 0
      objectReference: {fileID: 0}
    - target: {fileID: 5896640246791271991, guid: 1e17ccadc1ded7c408dce526f106bf5e, type: 3}
      propertyPath: m_AnchoredPosition.x
      value: 0
      objectReference: {fileID: 0}
    - target: {fileID: 5896640246791271991, guid: 1e17ccadc1ded7c408dce526f106bf5e, type: 3}
      propertyPath: m_AnchoredPosition.y
      value: 0
      objectReference: {fileID: 0}
    - target: {fileID: 6319511543565804978, guid: 1e17ccadc1ded7c408dce526f106bf5e, type: 3}
      propertyPath: m_SizeDelta.x
      value: 0
      objectReference: {fileID: 0}
    - target: {fileID: 6319511543565804978, guid: 1e17ccadc1ded7c408dce526f106bf5e, type: 3}
      propertyPath: m_SizeDelta.y
      value: 0
      objectReference: {fileID: 0}
    - target: {fileID: 6890611257124796197, guid: 1e17ccadc1ded7c408dce526f106bf5e, type: 3}
      propertyPath: m_text
      value: MC16
      objectReference: {fileID: 0}
    - target: {fileID: 6890611257124796197, guid: 1e17ccadc1ded7c408dce526f106bf5e, type: 3}
      propertyPath: m_fontSize
      value: 2.8
      objectReference: {fileID: 0}
    - target: {fileID: 7465392945080056320, guid: 1e17ccadc1ded7c408dce526f106bf5e, type: 3}
      propertyPath: quizPrefab
      value: 
      objectReference: {fileID: 8608352282006640361, guid: 9607e06909becfe42b2f9b3755fb33c4, type: 3}
    - target: {fileID: 7508194468591658932, guid: 1e17ccadc1ded7c408dce526f106bf5e, type: 3}
      propertyPath: m_AnchorMax.y
      value: 0
      objectReference: {fileID: 0}
    - target: {fileID: 7508194468591658932, guid: 1e17ccadc1ded7c408dce526f106bf5e, type: 3}
      propertyPath: m_AnchorMin.y
      value: 0
      objectReference: {fileID: 0}
    - target: {fileID: 7508194468591658932, guid: 1e17ccadc1ded7c408dce526f106bf5e, type: 3}
      propertyPath: m_AnchoredPosition.x
      value: 0
      objectReference: {fileID: 0}
    - target: {fileID: 7508194468591658932, guid: 1e17ccadc1ded7c408dce526f106bf5e, type: 3}
      propertyPath: m_AnchoredPosition.y
      value: 0
      objectReference: {fileID: 0}
    - target: {fileID: 7549644001461136041, guid: 1e17ccadc1ded7c408dce526f106bf5e, type: 3}
      propertyPath: m_AnchorMax.y
      value: 0
      objectReference: {fileID: 0}
    - target: {fileID: 7549644001461136041, guid: 1e17ccadc1ded7c408dce526f106bf5e, type: 3}
      propertyPath: m_AnchorMin.y
      value: 0
      objectReference: {fileID: 0}
    - target: {fileID: 7549644001461136041, guid: 1e17ccadc1ded7c408dce526f106bf5e, type: 3}
      propertyPath: m_AnchoredPosition.x
      value: 0
      objectReference: {fileID: 0}
    - target: {fileID: 7549644001461136041, guid: 1e17ccadc1ded7c408dce526f106bf5e, type: 3}
      propertyPath: m_AnchoredPosition.y
      value: 0
      objectReference: {fileID: 0}
    - target: {fileID: 8759193497038714296, guid: 1e17ccadc1ded7c408dce526f106bf5e, type: 3}
      propertyPath: m_AnchorMax.y
      value: 0
      objectReference: {fileID: 0}
    - target: {fileID: 8759193497038714296, guid: 1e17ccadc1ded7c408dce526f106bf5e, type: 3}
      propertyPath: m_AnchorMin.y
      value: 0
      objectReference: {fileID: 0}
    - target: {fileID: 8759193497038714296, guid: 1e17ccadc1ded7c408dce526f106bf5e, type: 3}
      propertyPath: m_AnchoredPosition.x
      value: 0
      objectReference: {fileID: 0}
    - target: {fileID: 8759193497038714296, guid: 1e17ccadc1ded7c408dce526f106bf5e, type: 3}
      propertyPath: m_AnchoredPosition.y
      value: 0
      objectReference: {fileID: 0}
    m_RemovedComponents: []
    m_RemovedGameObjects: []
    m_AddedGameObjects: []
    m_AddedComponents: []
  m_SourcePrefab: {fileID: 100100000, guid: 1e17ccadc1ded7c408dce526f106bf5e, type: 3}
