%YAML 1.1
%TAG !u! tag:unity3d.com,2011:
--- !u!114 &11400000
MonoBehaviour:
  m_ObjectHideFlags: 0
  m_CorrespondingSourceObject: {fileID: 0}
  m_PrefabInstance: {fileID: 0}
  m_PrefabAsset: {fileID: 0}
  m_GameObject: {fileID: 0}
  m_Enabled: 1
  m_EditorHideFlags: 0
  m_Script: {fileID: 11500000, guid: 27bbad99e8bc3844fa56f75dae714e4f, type: 3}
  m_Name: New Sub Section SO 2
  m_EditorClassIdentifier: 
  Title: Subsection 2
  Description: 
  Image: {fileID: 21300000, guid: 9bb60d9b0987c3747b57516cc172d0c7, type: 3}
  status: 1
  SubsectionPrefabs: {fileID: 5883909271556929466, guid: 80efb65d34c446847b6b9d9fe9c75b8d, type: 3}
