%YAML 1.1
%TAG !u! tag:unity3d.com,2011:
--- !u!114 &11400000
MonoBehaviour:
  m_ObjectHideFlags: 0
  m_CorrespondingSourceObject: {fileID: 0}
  m_PrefabInstance: {fileID: 0}
  m_PrefabAsset: {fileID: 0}
  m_GameObject: {fileID: 0}
  m_Enabled: 1
  m_EditorHideFlags: 0
  m_Script: {fileID: 11500000, guid: 27bbad99e8bc3844fa56f75dae714e4f, type: 3}
  m_Name: New Sub Section SO 1
  m_EditorClassIdentifier: 
  Title: Persiapan Change Over Total Dry Cleaning (TDC) Round Siever
  Description: 
  Image: {fileID: 21300000, guid: e36d1a38d7aa309409e80bf66a089330, type: 3}
  status: 0
  SubsectionPrefabs: {fileID: 6026783583250937747, guid: 6dc5433436863d74ea6f9118312af37f, type: 3}
