%YAML 1.1
%TAG !u! tag:unity3d.com,2011:
--- !u!114 &11400000
MonoBehaviour:
  m_ObjectHideFlags: 0
  m_CorrespondingSourceObject: {fileID: 0}
  m_PrefabInstance: {fileID: 0}
  m_PrefabAsset: {fileID: 0}
  m_GameObject: {fileID: 0}
  m_Enabled: 1
  m_EditorHideFlags: 0
  m_Script: {fileID: 11500000, guid: 93e35967d69caf544b0723989b890e2b, type: 3}
  m_Name: Photo
  m_EditorClassIdentifier: 
  meshList:
  - {fileID: 6686269311774189187, guid: 6be3869a0d1fce04782ba5bc59849fb1, type: 3}
  - {fileID: 10210, guid: 0000000000000000e000000000000000, type: 0}
  - {fileID: 10210, guid: 0000000000000000e000000000000000, type: 0}
  - {fileID: 10210, guid: 0000000000000000e000000000000000, type: 0}
  meshScaleList:
  - {x: 300.0001, y: 300.00003, z: 299.99997}
  - {x: 0.23999846, y: 0.23999839, z: 23.999834}
  - {x: 0.016093163, y: 0.36329493, z: 23.999834}
  - {x: 0.017494658, y: 0.36329493, z: 23.999834}
  meshPosList:
  - {x: 0.0002052789, y: 0.021118402, z: 0.0015908115}
  - {x: 0.0002049304, y: 0.021918416, z: -0.011409812}
  - {x: 0.037964694, y: 0.02211841, z: 0.001590684}
  - {x: -0.037194848, y: 0.02211841, z: 0.0015909623}
  meshRotList:
  - {x: -0.7071068, y: -0, z: -0, w: 0.70710677}
  - {x: -0.7071068, y: -0, z: -0, w: 0.70710677}
  - {x: -0, y: 0.70710677, z: -0.7071068, w: 0}
  - {x: -0, y: 0.70710677, z: -0.7071068, w: 0}
