%YAML 1.1
%TAG !u! tag:unity3d.com,2011:
--- !u!114 &11400000
MonoBehaviour:
  m_ObjectHideFlags: 0
  m_CorrespondingSourceObject: {fileID: 0}
  m_PrefabInstance: {fileID: 0}
  m_PrefabAsset: {fileID: 0}
  m_GameObject: {fileID: 0}
  m_Enabled: 1
  m_EditorHideFlags: 0
  m_Script: {fileID: 11500000, guid: 27bbad99e8bc3844fa56f75dae714e4f, type: 3}
  m_Name: 2. Pembongkaran Round Siever
  m_EditorClassIdentifier: 
  Title: Pembongkaran Round Siever
  Description: Operator memahami proses pembongkaran <i>Round Siever</i> serta peralatan
    yang dibutuhkan agar tidak terjadi kecelakaan kerja
  Image: {fileID: 21300000, guid: 50957164a0f5ed947a8237e0fc8356b8, type: 3}
  status: 2
  SubsectionPrefabs: {fileID: 4114426824379935133, guid: 8afe84a897f344a40a279443eb73d3ec, type: 3}
