%YAML 1.1
%TAG !u! tag:unity3d.com,2011:
--- !u!114 &-4831825343804449952
MonoBehaviour:
  m_ObjectHideFlags: 0
  m_CorrespondingSourceObject: {fileID: 0}
  m_PrefabInstance: {fileID: 0}
  m_PrefabAsset: {fileID: 0}
  m_GameObject: {fileID: 0}
  m_Enabled: 1
  m_EditorHideFlags: 0
  m_Script: {fileID: 11500000, guid: 775ad4994fda946d1a5936c7e2dfc785, type: 3}
  m_Name: control point
  m_EditorClassIdentifier: 
  particleIndices: 00000000
  m_Blueprint: {fileID: 11400000}
--- !u!114 &-4220828587343465638
MonoBehaviour:
  m_ObjectHideFlags: 0
  m_CorrespondingSourceObject: {fileID: 0}
  m_PrefabInstance: {fileID: 0}
  m_PrefabAsset: {fileID: 0}
  m_GameObject: {fileID: 0}
  m_Enabled: 1
  m_EditorHideFlags: 0
  m_Script: {fileID: 11500000, guid: 775ad4994fda946d1a5936c7e2dfc785, type: 3}
  m_Name: tail
  m_EditorClassIdentifier: 
  particleIndices: 08000000
  m_Blueprint: {fileID: 11400000}
--- !u!114 &11400000
MonoBehaviour:
  m_ObjectHideFlags: 0
  m_CorrespondingSourceObject: {fileID: 0}
  m_PrefabInstance: {fileID: 0}
  m_PrefabAsset: {fileID: 0}
  m_GameObject: {fileID: 0}
  m_Enabled: 1
  m_EditorHideFlags: 0
  m_Script: {fileID: 11500000, guid: e028b099aa5d14e399bc3d87df5b7737, type: 3}
  m_Name: Air Hose - mesin - persiapan round siever
  m_EditorClassIdentifier: 
  m_Empty: 0
  m_ActiveParticleCount: 9
  m_InitialActiveParticleCount: 9
  _bounds:
    m_Center: {x: 0.29187012, y: 0.2983634, z: -0.11210057}
    m_Extent: {x: 1.0364766, y: 0.31607372, z: 0.23207453}
  positions:
  - {x: -0.7446065, y: 0.05269432, z: -0.3441751}
  - {x: -0.6089769, y: 0.03204885, z: -0.061700534}
  - {x: -0.31475553, y: -0.00030505547, z: 0.07014673}
  - {x: 0.007597628, y: -0.017710349, z: 0.11600215}
  - {x: 0.33430392, y: -0.011925632, z: 0.11997394}
  - {x: 0.6576146, y: 0.027454957, z: 0.09880278}
  - {x: 0.96785843, y: 0.12164247, z: 0.06124313}
  - {x: 1.2246448, y: 0.31203425, z: 0.018425182}
  - {x: 1.3283467, y: 0.6144371, z: -0.0040507317}
  restPositions:
  - {x: -0.7446065, y: 0.05269432, z: -0.3441751, w: 1}
  - {x: -0.6089769, y: 0.03204885, z: -0.061700534, w: 1}
  - {x: -0.31475553, y: -0.00030505547, z: 0.07014673, w: 1}
  - {x: 0.007597628, y: -0.017710349, z: 0.11600215, w: 1}
  - {x: 0.33430392, y: -0.011925632, z: 0.11997394, w: 1}
  - {x: 0.6576146, y: 0.027454957, z: 0.09880278, w: 1}
  - {x: 0.96785843, y: 0.12164247, z: 0.06124313, w: 1}
  - {x: 1.2246448, y: 0.31203425, z: 0.018425182, w: 1}
  - {x: 1.3283467, y: 0.6144371, z: -0.0040507317, w: 1}
  orientations:
  - {x: 0.032069445, y: 0.22183599, z: -0.0073000966, w: 0.9745292}
  - {x: 0.04195497, y: 0.5429474, z: -0.027173977, w: 0.83827776}
  - {x: 0.020165116, y: 0.6551921, z: -0.017499592, w: 0.75499046}
  - {x: -0.0062968046, y: 0.70276827, z: 0.00622072, w: 0.7113638}
  - {x: -0.041316595, y: 0.72850907, z: 0.04411059, w: 0.6823648}
  - {x: -0.09673187, y: 0.74039197, z: 0.109149, w: 0.65616256}
  - {x: -0.20069507, y: 0.72532827, z: 0.23693097, w: 0.6143974}
  - {x: -0.36304864, y: 0.63502896, z: 0.4501634, w: 0.51213944}
  - {x: -0.36304864, y: 0.63502896, z: 0.4501634, w: 0.51213944}
  restOrientations:
  - {x: 0.032069445, y: 0.22183599, z: -0.0073000966, w: 0.9745292}
  - {x: 0.04195497, y: 0.5429474, z: -0.027173977, w: 0.83827776}
  - {x: 0.020165116, y: 0.6551921, z: -0.017499592, w: 0.75499046}
  - {x: -0.0062968046, y: 0.70276827, z: 0.00622072, w: 0.7113638}
  - {x: -0.041316595, y: 0.72850907, z: 0.04411059, w: 0.6823648}
  - {x: -0.09673187, y: 0.74039197, z: 0.109149, w: 0.65616256}
  - {x: -0.20069507, y: 0.72532827, z: 0.23693097, w: 0.6143974}
  - {x: -0.36304864, y: 0.63502896, z: 0.4501634, w: 0.51213944}
  - {x: -0.36304864, y: 0.63502896, z: 0.4501634, w: 0.51213944}
  velocities:
  - {x: 0, y: 0, z: 0}
  - {x: 0, y: 0, z: 0}
  - {x: 0, y: 0, z: 0}
  - {x: 0, y: 0, z: 0}
  - {x: 0, y: 0, z: 0}
  - {x: 0, y: 0, z: 0}
  - {x: 0, y: 0, z: 0}
  - {x: 0, y: 0, z: 0}
  - {x: 0, y: 0, z: 0}
  angularVelocities:
  - {x: 0, y: 0, z: 0}
  - {x: 0, y: 0, z: 0}
  - {x: 0, y: 0, z: 0}
  - {x: 0, y: 0, z: 0}
  - {x: 0, y: 0, z: 0}
  - {x: 0, y: 0, z: 0}
  - {x: 0, y: 0, z: 0}
  - {x: 0, y: 0, z: 0}
  - {x: 0, y: 0, z: 0}
  invMasses:
  - 10
  - 10
  - 10.000001
  - 10
  - 10
  - 10
  - 10
  - 10
  - 10
  invRotationalMasses:
  - 100
  - 100
  - 100.000015
  - 100
  - 100
  - 100
  - 100
  - 100
  - 100
  filters: 0200ffff0200ffff0200ffff0200ffff0200ffff0200ffff0200ffff0200ffff0200ffff
  principalRadii:
  - {x: 0.01, y: 0.01, z: 0.01}
  - {x: 0.01, y: 0.01, z: 0.01}
  - {x: 0.009999999, y: 0.009999999, z: 0.009999999}
  - {x: 0.01, y: 0.01, z: 0.01}
  - {x: 0.01, y: 0.01, z: 0.01}
  - {x: 0.01, y: 0.01, z: 0.01}
  - {x: 0.01, y: 0.01, z: 0.01}
  - {x: 0.01, y: 0.01, z: 0.01}
  - {x: 0.01, y: 0.01, z: 0.01}
  colors:
  - {r: 1, g: 1, b: 1, a: 1}
  - {r: 1, g: 1, b: 1, a: 1}
  - {r: 0.99999994, g: 0.99999994, b: 0.99999994, a: 0.99999994}
  - {r: 1, g: 1, b: 1, a: 1}
  - {r: 1, g: 1, b: 1, a: 1}
  - {r: 1, g: 1, b: 1, a: 1}
  - {r: 1, g: 1, b: 1, a: 1}
  - {r: 1, g: 1, b: 1, a: 1}
  - {r: 1, g: 1, b: 1, a: 1}
  points: 
  edges: 00000000010000000100000002000000020000000300000003000000040000000400000005000000050000000600000006000000070000000700000008000000
  triangles: 
  distanceConstraintsData:
    batches: []
  bendConstraintsData:
    batches: []
  skinConstraintsData:
    batches: []
  tetherConstraintsData:
    batches: []
  stretchShearConstraintsData:
    batches:
    - m_IDs: 00000000010000000200000003000000
      m_IDToIndex: 00000000010000000200000003000000
      m_ConstraintCount: 4
      m_ActiveConstraintCount: 4
      m_InitialActiveConstraintCount: 4
      particleIndices:
        serializedContents: 0000000001000000020000000300000004000000050000000600000007000000
        m_AlignBytes: 16
      lambdas:
        serializedContents: []
        m_AlignBytes: 16
      orientationIndices:
        serializedContents: 00000000020000000400000006000000
        m_AlignBytes: 16
      restLengths:
        serializedContents:
        - 0.31402788
        - 0.32606322
        - 0.32638755
        - 0.32252386
        m_AlignBytes: 16
      restOrientations:
        serializedContents:
        - {x: 0, y: 0, z: 0, w: 1}
        - {x: 0, y: 0, z: 0, w: 1}
        - {x: 0, y: 0, z: 0, w: 1}
        - {x: 0, y: 0, z: 0, w: 1}
        m_AlignBytes: 16
      stiffnesses:
        serializedContents:
        - {x: 0, y: 0, z: 0}
        - {x: 0, y: 0, z: 0}
        - {x: 0, y: 0, z: 0}
        - {x: 0, y: 0, z: 0}
        m_AlignBytes: 16
    - m_IDs: 00000000010000000200000003000000
      m_IDToIndex: 00000000010000000200000003000000
      m_ConstraintCount: 4
      m_ActiveConstraintCount: 4
      m_InitialActiveConstraintCount: 4
      particleIndices:
        serializedContents: 0100000002000000030000000400000005000000060000000700000008000000
        m_AlignBytes: 16
      lambdas:
        serializedContents: []
        m_AlignBytes: 16
      orientationIndices:
        serializedContents: 01000000030000000500000007000000
        m_AlignBytes: 16
      restLengths:
        serializedContents:
        - 0.32403192
        - 0.32678163
        - 0.32639432
        - 0.32047895
        m_AlignBytes: 16
      restOrientations:
        serializedContents:
        - {x: 0, y: 0, z: 0, w: 1}
        - {x: 0, y: 0, z: 0, w: 1}
        - {x: 0, y: 0, z: 0, w: 1}
        - {x: 0, y: 0, z: 0, w: 1}
        m_AlignBytes: 16
      stiffnesses:
        serializedContents:
        - {x: 0, y: 0, z: 0}
        - {x: 0, y: 0, z: 0}
        - {x: 0, y: 0, z: 0}
        - {x: 0, y: 0, z: 0}
        m_AlignBytes: 16
  bendTwistConstraintsData:
    batches:
    - m_IDs: 00000000010000000200000003000000
      m_IDToIndex: 00000000010000000200000003000000
      m_ConstraintCount: 4
      m_ActiveConstraintCount: 4
      m_InitialActiveConstraintCount: 4
      particleIndices:
        serializedContents: 0000000001000000020000000300000004000000050000000600000007000000
        m_AlignBytes: 16
      lambdas:
        serializedContents: []
        m_AlignBytes: 16
      restDarbouxVectors:
        serializedContents:
        - {x: 0.01606784, y: 0.34259275, z: -0.028467225, w: 0.93891525}
        - {x: -0.035472684, y: 0.06451867, z: -0.0011518595, w: 0.99728525}
        - {x: -0.085752934, y: 0.026954293, z: 0.0056561516, w: 0.9959358}
        - {x: -0.29633048, y: 0.014362826, z: 0.019355267, w: 0.9547813}
        m_AlignBytes: 16
      stiffnesses:
        serializedContents:
        - {x: 0, y: 0, z: 0}
        - {x: 0, y: 0, z: 0}
        - {x: 0, y: 0, z: 0}
        - {x: 0, y: 0, z: 0}
        m_AlignBytes: 16
      plasticity:
        serializedContents:
        - {x: 0, y: 0}
        - {x: 0, y: 0}
        - {x: 0, y: 0}
        - {x: 0, y: 0}
        m_AlignBytes: 16
    - m_IDs: 00000000010000000200000003000000
      m_IDToIndex: 00000000010000000200000003000000
      m_ConstraintCount: 4
      m_ActiveConstraintCount: 4
      m_InitialActiveConstraintCount: 4
      particleIndices:
        serializedContents: 0100000002000000030000000400000005000000060000000700000008000000
        m_AlignBytes: 16
      lambdas:
        serializedContents: []
        m_AlignBytes: 16
      restDarbouxVectors:
        serializedContents:
        - {x: -0.023074452, y: 0.1391266, z: -0.010693393, w: 0.9899481}
        - {x: -0.051562082, y: 0.038669895, z: 0.002685163, w: 0.99791723}
        - {x: -0.1685097, y: 0.020025237, z: 0.00997371, w: 0.9854462}
        - {x: 0, y: 0, z: 0, w: 1}
        m_AlignBytes: 16
      stiffnesses:
        serializedContents:
        - {x: 0, y: 0, z: 0}
        - {x: 0, y: 0, z: 0}
        - {x: 0, y: 0, z: 0}
        - {x: 0, y: 0, z: 0}
        m_AlignBytes: 16
      plasticity:
        serializedContents:
        - {x: 0, y: 0}
        - {x: 0, y: 0}
        - {x: 0, y: 0}
        - {x: 0, y: 0}
        m_AlignBytes: 16
  shapeMatchingConstraintsData:
    batches: []
  aerodynamicConstraintsData:
    batches: []
  chainConstraintsData:
    batches:
    - m_IDs: 00000000
      m_IDToIndex: 00000000
      m_ConstraintCount: 1
      m_ActiveConstraintCount: 1
      m_InitialActiveConstraintCount: 1
      particleIndices:
        serializedContents: 000000000100000002000000030000000400000005000000060000000700000008000000
        m_AlignBytes: 16
      lambdas:
        serializedContents: []
        m_AlignBytes: 16
      firstParticle:
        serializedContents: 00000000
        m_AlignBytes: 16
      numParticles:
        serializedContents: 09000000
        m_AlignBytes: 16
      lengths:
        serializedContents:
        - {x: 0.32645378, y: 0.32645378}
        m_AlignBytes: 16
  volumeConstraintsData:
    batches: []
  groups:
  - {fileID: -4831825343804449952}
  - {fileID: -4220828587343465638}
  path:
    m_Names:
    - control point
    - tail
    m_Points:
      data:
      - tangentMode: 0
        inTangent: {x: -0, y: -0, z: -0.24999999}
        position: {x: -0.7446065, y: 0.05269432, z: -0.3441751}
        outTangent: {x: 0, y: 0, z: 0.7751868}
      - tangentMode: 0
        inTangent: {x: -0.02011854, y: -0.928595, z: 0.012512139}
        position: {x: 1.3283467, y: 0.6144371, z: -0.0040507317}
        outTangent: {x: 0.00541463, y: 0.24991857, z: -0.0033674496}
    m_Normals:
      data:
      - {x: 0, y: 1, z: 0}
      - {x: 0, y: 1, z: 0}
    m_Colors:
      data:
      - {r: 1, g: 1, b: 1, a: 1}
      - {r: 1, g: 1, b: 1, a: 1}
    m_Thickness:
      data:
      - 1
      - 1
    m_Masses:
      data:
      - 0.1
      - 0.1
    m_RotationalMasses:
      data:
      - 0.01
      - 0.01
    m_Filters:
      data: 0200ffff0200ffff
    m_Closed: 0
    m_ArcLengthTable:
    - 0
    - 0.10401198
    - 0.20028749
    - 0.29663706
    - 0.39862517
    - 0.5091608
    - 0.6290702
    - 0.7578373
    - 0.89414823
    - 1.0362312
    - 1.1820654
    - 1.3295192
    - 1.4764539
    - 1.6208225
    - 1.7607824
    - 1.8948475
    - 2.022113
    - 2.142585
    - 2.2576275
    - 2.370431
    - 2.4861908
    - 2.6116302
    m_TotalSplineLenght: 2.6116302
    OnPathChanged:
      m_PersistentCalls:
        m_Calls: []
    OnControlPointAdded:
      m_PersistentCalls:
        m_Calls: []
    OnControlPointRemoved:
      m_PersistentCalls:
        m_Calls: []
    OnControlPointRenamed:
      m_PersistentCalls:
        m_Calls: []
  thickness: 0.01
  resolution: 0.03
  m_InterParticleDistance: 0.32645378
  totalParticles: 9
  m_RestLength: 2.5866892
  restLengths:
  - 0.31402788
  - 0.32403192
  - 0.32606322
  - 0.32678163
  - 0.32638755
  - 0.32639432
  - 0.32252386
  - 0.32047895
  - 0
  keepInitialShape: 1
