%YAML 1.1
%TAG !u! tag:unity3d.com,2011:
--- !u!1001 &1370698984698827646
PrefabInstance:
  m_ObjectHideFlags: 0
  serializedVersion: 2
  m_Modification:
    m_TransformParent: {fileID: 0}
    m_Modifications:
    - target: {fileID: 244591907880869673, guid: 99db2e97e7d7f484db162ab5d0069e4c, type: 3}
      propertyPath: sceneDestinationName
      value: LobbyScene - Harda - NoSplash N
      objectReference: {fileID: 0}
    - target: {fileID: 744433337959489774, guid: 99db2e97e7d7f484db162ab5d0069e4c, type: 3}
      propertyPath: m_AnchorMax.y
      value: 1
      objectReference: {fileID: 0}
    - target: {fileID: 744433337959489774, guid: 99db2e97e7d7f484db162ab5d0069e4c, type: 3}
      propertyPath: m_AnchorMin.y
      value: 1
      objectReference: {fileID: 0}
    - target: {fileID: 744433337959489774, guid: 99db2e97e7d7f484db162ab5d0069e4c, type: 3}
      propertyPath: m_AnchoredPosition.x
      value: 19.5
      objectReference: {fileID: 0}
    - target: {fileID: 744433337959489774, guid: 99db2e97e7d7f484db162ab5d0069e4c, type: 3}
      propertyPath: m_AnchoredPosition.y
      value: -1
      objectReference: {fileID: 0}
    - target: {fileID: 1343345631996786743, guid: 99db2e97e7d7f484db162ab5d0069e4c, type: 3}
      propertyPath: m_Sprite
      value: 
      objectReference: {fileID: 21300000, guid: aa3a472fe0696094cacc6a65153a8d21, type: 3}
    - target: {fileID: 1343345632809400561, guid: 99db2e97e7d7f484db162ab5d0069e4c, type: 3}
      propertyPath: m_IsActive
      value: 0
      objectReference: {fileID: 0}
    - target: {fileID: 1693580126492167023, guid: 99db2e97e7d7f484db162ab5d0069e4c, type: 3}
      propertyPath: quizPrefab
      value: 
      objectReference: {fileID: 1809213750946825124, guid: 0831294030256e143bfc077e3f293c67, type: 3}
    - target: {fileID: 2067521341474286499, guid: 99db2e97e7d7f484db162ab5d0069e4c, type: 3}
      propertyPath: m_IsActive
      value: 0
      objectReference: {fileID: 0}
    - target: {fileID: 2067521342060171426, guid: 99db2e97e7d7f484db162ab5d0069e4c, type: 3}
      propertyPath: sceneViewId
      value: 0
      objectReference: {fileID: 0}
    - target: {fileID: 2067521342060171427, guid: 99db2e97e7d7f484db162ab5d0069e4c, type: 3}
      propertyPath: serializationData.Prefab
      value: 
      objectReference: {fileID: 2067521342060171427, guid: 99db2e97e7d7f484db162ab5d0069e4c, type: 3}
    - target: {fileID: 2067521342613747216, guid: 99db2e97e7d7f484db162ab5d0069e4c, type: 3}
      propertyPath: m_RootOrder
      value: 0
      objectReference: {fileID: 0}
    - target: {fileID: 2067521342613747216, guid: 99db2e97e7d7f484db162ab5d0069e4c, type: 3}
      propertyPath: m_LocalPosition.x
      value: 0
      objectReference: {fileID: 0}
    - target: {fileID: 2067521342613747216, guid: 99db2e97e7d7f484db162ab5d0069e4c, type: 3}
      propertyPath: m_LocalPosition.y
      value: 0
      objectReference: {fileID: 0}
    - target: {fileID: 2067521342613747216, guid: 99db2e97e7d7f484db162ab5d0069e4c, type: 3}
      propertyPath: m_LocalPosition.z
      value: 0
      objectReference: {fileID: 0}
    - target: {fileID: 2067521342613747216, guid: 99db2e97e7d7f484db162ab5d0069e4c, type: 3}
      propertyPath: m_LocalRotation.w
      value: 1
      objectReference: {fileID: 0}
    - target: {fileID: 2067521342613747216, guid: 99db2e97e7d7f484db162ab5d0069e4c, type: 3}
      propertyPath: m_LocalRotation.x
      value: 0
      objectReference: {fileID: 0}
    - target: {fileID: 2067521342613747216, guid: 99db2e97e7d7f484db162ab5d0069e4c, type: 3}
      propertyPath: m_LocalRotation.y
      value: 0
      objectReference: {fileID: 0}
    - target: {fileID: 2067521342613747216, guid: 99db2e97e7d7f484db162ab5d0069e4c, type: 3}
      propertyPath: m_LocalRotation.z
      value: 0
      objectReference: {fileID: 0}
    - target: {fileID: 2067521342613747216, guid: 99db2e97e7d7f484db162ab5d0069e4c, type: 3}
      propertyPath: m_LocalEulerAnglesHint.x
      value: 0
      objectReference: {fileID: 0}
    - target: {fileID: 2067521342613747216, guid: 99db2e97e7d7f484db162ab5d0069e4c, type: 3}
      propertyPath: m_LocalEulerAnglesHint.y
      value: 0
      objectReference: {fileID: 0}
    - target: {fileID: 2067521342613747216, guid: 99db2e97e7d7f484db162ab5d0069e4c, type: 3}
      propertyPath: m_LocalEulerAnglesHint.z
      value: 0
      objectReference: {fileID: 0}
    - target: {fileID: 2067521342613747218, guid: 99db2e97e7d7f484db162ab5d0069e4c, type: 3}
      propertyPath: sceneViewId
      value: 0
      objectReference: {fileID: 0}
    - target: {fileID: 2067521342613747219, guid: 99db2e97e7d7f484db162ab5d0069e4c, type: 3}
      propertyPath: serializationData.Prefab
      value: 
      objectReference: {fileID: 2067521342613747219, guid: 99db2e97e7d7f484db162ab5d0069e4c, type: 3}
    - target: {fileID: 2067521342613747221, guid: 99db2e97e7d7f484db162ab5d0069e4c, type: 3}
      propertyPath: m_Name
      value: 13 normal
      objectReference: {fileID: 0}
    - target: {fileID: 2147142259731628996, guid: 99db2e97e7d7f484db162ab5d0069e4c, type: 3}
      propertyPath: m_AnchorMax.y
      value: 1
      objectReference: {fileID: 0}
    - target: {fileID: 2147142259731628996, guid: 99db2e97e7d7f484db162ab5d0069e4c, type: 3}
      propertyPath: m_AnchorMin.y
      value: 1
      objectReference: {fileID: 0}
    - target: {fileID: 2147142259731628996, guid: 99db2e97e7d7f484db162ab5d0069e4c, type: 3}
      propertyPath: m_AnchoredPosition.x
      value: 22.5
      objectReference: {fileID: 0}
    - target: {fileID: 2147142259731628996, guid: 99db2e97e7d7f484db162ab5d0069e4c, type: 3}
      propertyPath: m_AnchoredPosition.y
      value: -1
      objectReference: {fileID: 0}
    - target: {fileID: 2231917215970167957, guid: 99db2e97e7d7f484db162ab5d0069e4c, type: 3}
      propertyPath: m_text
      value: Amati kertas-kertas bertuliskan jawaban yang tersebar di ruangan
      objectReference: {fileID: 0}
    - target: {fileID: 3065422828721215232, guid: 99db2e97e7d7f484db162ab5d0069e4c, type: 3}
      propertyPath: m_OnClick.m_PersistentCalls.m_Calls.Array.data[0].m_Arguments.m_ObjectArgument
      value: 
      objectReference: {fileID: 11400000, guid: f29b9b1e8af9c17438d9b0c8ed936186, type: 2}
    - target: {fileID: 3276949152624573205, guid: 99db2e97e7d7f484db162ab5d0069e4c, type: 3}
      propertyPath: sceneDestinationName
      value: LobbyScene - Harda - NoSplash N
      objectReference: {fileID: 0}
    - target: {fileID: 3317780769386156571, guid: 99db2e97e7d7f484db162ab5d0069e4c, type: 3}
      propertyPath: sceneDestinationName
      value: LobbyScene - Harda - NoSplash N
      objectReference: {fileID: 0}
    - target: {fileID: 4194409845350566149, guid: 99db2e97e7d7f484db162ab5d0069e4c, type: 3}
      propertyPath: m_AnchorMax.y
      value: 0
      objectReference: {fileID: 0}
    - target: {fileID: 4194409845350566149, guid: 99db2e97e7d7f484db162ab5d0069e4c, type: 3}
      propertyPath: m_AnchorMin.y
      value: 0
      objectReference: {fileID: 0}
    - target: {fileID: 4194409845350566149, guid: 99db2e97e7d7f484db162ab5d0069e4c, type: 3}
      propertyPath: m_AnchoredPosition.x
      value: 0
      objectReference: {fileID: 0}
    - target: {fileID: 4194409845350566149, guid: 99db2e97e7d7f484db162ab5d0069e4c, type: 3}
      propertyPath: m_AnchoredPosition.y
      value: 0
      objectReference: {fileID: 0}
    - target: {fileID: 4289909827321645024, guid: 99db2e97e7d7f484db162ab5d0069e4c, type: 3}
      propertyPath: m_AnchorMax.y
      value: 0
      objectReference: {fileID: 0}
    - target: {fileID: 4289909827321645024, guid: 99db2e97e7d7f484db162ab5d0069e4c, type: 3}
      propertyPath: m_AnchorMin.y
      value: 0
      objectReference: {fileID: 0}
    - target: {fileID: 4289909827321645024, guid: 99db2e97e7d7f484db162ab5d0069e4c, type: 3}
      propertyPath: m_AnchoredPosition.x
      value: 0
      objectReference: {fileID: 0}
    - target: {fileID: 4289909827321645024, guid: 99db2e97e7d7f484db162ab5d0069e4c, type: 3}
      propertyPath: m_AnchoredPosition.y
      value: 0
      objectReference: {fileID: 0}
    - target: {fileID: 4484276221804145973, guid: 99db2e97e7d7f484db162ab5d0069e4c, type: 3}
      propertyPath: m_SizeDelta.x
      value: 0
      objectReference: {fileID: 0}
    - target: {fileID: 4484276221804145973, guid: 99db2e97e7d7f484db162ab5d0069e4c, type: 3}
      propertyPath: m_SizeDelta.y
      value: 0
      objectReference: {fileID: 0}
    - target: {fileID: 4596858825086334403, guid: 99db2e97e7d7f484db162ab5d0069e4c, type: 3}
      propertyPath: m_IsActive
      value: 0
      objectReference: {fileID: 0}
    - target: {fileID: 4608382621741819074, guid: 99db2e97e7d7f484db162ab5d0069e4c, type: 3}
      propertyPath: m_AnchoredPosition.y
      value: 8215115
      objectReference: {fileID: 0}
    - target: {fileID: 4622365270098795832, guid: 99db2e97e7d7f484db162ab5d0069e4c, type: 3}
      propertyPath: m_AnchorMax.y
      value: 0
      objectReference: {fileID: 0}
    - target: {fileID: 4622365270098795832, guid: 99db2e97e7d7f484db162ab5d0069e4c, type: 3}
      propertyPath: m_AnchorMin.y
      value: 0
      objectReference: {fileID: 0}
    - target: {fileID: 4622365270098795832, guid: 99db2e97e7d7f484db162ab5d0069e4c, type: 3}
      propertyPath: m_AnchoredPosition.x
      value: 0
      objectReference: {fileID: 0}
    - target: {fileID: 4622365270098795832, guid: 99db2e97e7d7f484db162ab5d0069e4c, type: 3}
      propertyPath: m_AnchoredPosition.y
      value: 0
      objectReference: {fileID: 0}
    - target: {fileID: 4986230261298161587, guid: 99db2e97e7d7f484db162ab5d0069e4c, type: 3}
      propertyPath: m_SizeDelta.x
      value: 45
      objectReference: {fileID: 0}
    - target: {fileID: 4986230261298161587, guid: 99db2e97e7d7f484db162ab5d0069e4c, type: 3}
      propertyPath: m_SizeDelta.y
      value: 2
      objectReference: {fileID: 0}
    - target: {fileID: 5063042058171502269, guid: 99db2e97e7d7f484db162ab5d0069e4c, type: 3}
      propertyPath: m_SizeDelta.x
      value: 0
      objectReference: {fileID: 0}
    - target: {fileID: 5063042058171502269, guid: 99db2e97e7d7f484db162ab5d0069e4c, type: 3}
      propertyPath: m_SizeDelta.y
      value: 0
      objectReference: {fileID: 0}
    - target: {fileID: 5557884129791030564, guid: 99db2e97e7d7f484db162ab5d0069e4c, type: 3}
      propertyPath: m_text
      value: MC13
      objectReference: {fileID: 0}
    - target: {fileID: 5643218996266245162, guid: 99db2e97e7d7f484db162ab5d0069e4c, type: 3}
      propertyPath: m_text
      value: MC13
      objectReference: {fileID: 0}
    - target: {fileID: 5643218996266245162, guid: 99db2e97e7d7f484db162ab5d0069e4c, type: 3}
      propertyPath: m_fontSize
      value: 2.85
      objectReference: {fileID: 0}
    - target: {fileID: 5722593059949745655, guid: 99db2e97e7d7f484db162ab5d0069e4c, type: 3}
      propertyPath: quizPrefab
      value: 
      objectReference: {fileID: 1119375067634931947, guid: a4a51e8eb0889454c9821c2ea6c1b7c1, type: 3}
    - target: {fileID: 5811553273061050970, guid: 99db2e97e7d7f484db162ab5d0069e4c, type: 3}
      propertyPath: m_AnchorMax.y
      value: 1
      objectReference: {fileID: 0}
    - target: {fileID: 5811553273061050970, guid: 99db2e97e7d7f484db162ab5d0069e4c, type: 3}
      propertyPath: m_AnchorMin.y
      value: 1
      objectReference: {fileID: 0}
    - target: {fileID: 5811553273061050970, guid: 99db2e97e7d7f484db162ab5d0069e4c, type: 3}
      propertyPath: m_AnchoredPosition.x
      value: 25.5
      objectReference: {fileID: 0}
    - target: {fileID: 5811553273061050970, guid: 99db2e97e7d7f484db162ab5d0069e4c, type: 3}
      propertyPath: m_AnchoredPosition.y
      value: -1
      objectReference: {fileID: 0}
    - target: {fileID: 6088513722673400853, guid: 99db2e97e7d7f484db162ab5d0069e4c, type: 3}
      propertyPath: m_SizeDelta.x
      value: 0
      objectReference: {fileID: 0}
    - target: {fileID: 6088513722673400853, guid: 99db2e97e7d7f484db162ab5d0069e4c, type: 3}
      propertyPath: m_SizeDelta.y
      value: 0
      objectReference: {fileID: 0}
    - target: {fileID: 6241419086238715716, guid: 99db2e97e7d7f484db162ab5d0069e4c, type: 3}
      propertyPath: m_AnchorMax.y
      value: 1
      objectReference: {fileID: 0}
    - target: {fileID: 6241419086238715716, guid: 99db2e97e7d7f484db162ab5d0069e4c, type: 3}
      propertyPath: m_AnchorMin.y
      value: 1
      objectReference: {fileID: 0}
    - target: {fileID: 6241419086238715716, guid: 99db2e97e7d7f484db162ab5d0069e4c, type: 3}
      propertyPath: m_AnchoredPosition.x
      value: 19.5
      objectReference: {fileID: 0}
    - target: {fileID: 6241419086238715716, guid: 99db2e97e7d7f484db162ab5d0069e4c, type: 3}
      propertyPath: m_AnchoredPosition.y
      value: -1
      objectReference: {fileID: 0}
    - target: {fileID: 6609333650510470624, guid: 99db2e97e7d7f484db162ab5d0069e4c, type: 3}
      propertyPath: m_AnchorMax.y
      value: 0
      objectReference: {fileID: 0}
    - target: {fileID: 6609333650510470624, guid: 99db2e97e7d7f484db162ab5d0069e4c, type: 3}
      propertyPath: m_AnchorMin.y
      value: 0
      objectReference: {fileID: 0}
    - target: {fileID: 6609333650510470624, guid: 99db2e97e7d7f484db162ab5d0069e4c, type: 3}
      propertyPath: m_AnchoredPosition.x
      value: 0
      objectReference: {fileID: 0}
    - target: {fileID: 6609333650510470624, guid: 99db2e97e7d7f484db162ab5d0069e4c, type: 3}
      propertyPath: m_AnchoredPosition.y
      value: 0
      objectReference: {fileID: 0}
    - target: {fileID: 6939560114382141462, guid: 99db2e97e7d7f484db162ab5d0069e4c, type: 3}
      propertyPath: m_text
      value: MC13
      objectReference: {fileID: 0}
    - target: {fileID: 7102588352730957632, guid: 99db2e97e7d7f484db162ab5d0069e4c, type: 3}
      propertyPath: quizPrefab
      value: 
      objectReference: {fileID: 3597786198398248287, guid: 8afdd903a4ec3dd42b62af950c7a8dba, type: 3}
    - target: {fileID: 7214779706116959969, guid: 99db2e97e7d7f484db162ab5d0069e4c, type: 3}
      propertyPath: m_AnchorMax.y
      value: 0
      objectReference: {fileID: 0}
    - target: {fileID: 7214779706116959969, guid: 99db2e97e7d7f484db162ab5d0069e4c, type: 3}
      propertyPath: m_AnchorMin.y
      value: 0
      objectReference: {fileID: 0}
    - target: {fileID: 7214779706116959969, guid: 99db2e97e7d7f484db162ab5d0069e4c, type: 3}
      propertyPath: m_AnchoredPosition.x
      value: 0
      objectReference: {fileID: 0}
    - target: {fileID: 7214779706116959969, guid: 99db2e97e7d7f484db162ab5d0069e4c, type: 3}
      propertyPath: m_AnchoredPosition.y
      value: 0
      objectReference: {fileID: 0}
    - target: {fileID: 7520291208148822657, guid: 99db2e97e7d7f484db162ab5d0069e4c, type: 3}
      propertyPath: m_SizeDelta.x
      value: 45
      objectReference: {fileID: 0}
    - target: {fileID: 7520291208148822657, guid: 99db2e97e7d7f484db162ab5d0069e4c, type: 3}
      propertyPath: m_SizeDelta.y
      value: 2
      objectReference: {fileID: 0}
    - target: {fileID: 7630953918500787353, guid: 99db2e97e7d7f484db162ab5d0069e4c, type: 3}
      propertyPath: m_AnchorMax.y
      value: 1
      objectReference: {fileID: 0}
    - target: {fileID: 7630953918500787353, guid: 99db2e97e7d7f484db162ab5d0069e4c, type: 3}
      propertyPath: m_AnchorMin.y
      value: 1
      objectReference: {fileID: 0}
    - target: {fileID: 7630953918500787353, guid: 99db2e97e7d7f484db162ab5d0069e4c, type: 3}
      propertyPath: m_AnchoredPosition.x
      value: 25.5
      objectReference: {fileID: 0}
    - target: {fileID: 7630953918500787353, guid: 99db2e97e7d7f484db162ab5d0069e4c, type: 3}
      propertyPath: m_AnchoredPosition.y
      value: -1
      objectReference: {fileID: 0}
    - target: {fileID: 7714982120729668306, guid: 99db2e97e7d7f484db162ab5d0069e4c, type: 3}
      propertyPath: m_AnchorMax.y
      value: 1
      objectReference: {fileID: 0}
    - target: {fileID: 7714982120729668306, guid: 99db2e97e7d7f484db162ab5d0069e4c, type: 3}
      propertyPath: m_AnchorMin.y
      value: 1
      objectReference: {fileID: 0}
    - target: {fileID: 7714982120729668306, guid: 99db2e97e7d7f484db162ab5d0069e4c, type: 3}
      propertyPath: m_AnchoredPosition.x
      value: 22.5
      objectReference: {fileID: 0}
    - target: {fileID: 7714982120729668306, guid: 99db2e97e7d7f484db162ab5d0069e4c, type: 3}
      propertyPath: m_AnchoredPosition.y
      value: -1
      objectReference: {fileID: 0}
    - target: {fileID: 8615335821862024533, guid: 99db2e97e7d7f484db162ab5d0069e4c, type: 3}
      propertyPath: m_OnClick.m_PersistentCalls.m_Calls.Array.data[0].m_Arguments.m_ObjectArgument
      value: 
      objectReference: {fileID: 11400000, guid: f29b9b1e8af9c17438d9b0c8ed936186, type: 2}
    - target: {fileID: 8652174664427913518, guid: 99db2e97e7d7f484db162ab5d0069e4c, type: 3}
      propertyPath: m_AnchorMax.y
      value: 0
      objectReference: {fileID: 0}
    - target: {fileID: 8652174664427913518, guid: 99db2e97e7d7f484db162ab5d0069e4c, type: 3}
      propertyPath: m_AnchorMin.y
      value: 0
      objectReference: {fileID: 0}
    - target: {fileID: 8652174664427913518, guid: 99db2e97e7d7f484db162ab5d0069e4c, type: 3}
      propertyPath: m_AnchoredPosition.x
      value: 0
      objectReference: {fileID: 0}
    - target: {fileID: 8652174664427913518, guid: 99db2e97e7d7f484db162ab5d0069e4c, type: 3}
      propertyPath: m_AnchoredPosition.y
      value: 0
      objectReference: {fileID: 0}
    - target: {fileID: 8733986632038564262, guid: 99db2e97e7d7f484db162ab5d0069e4c, type: 3}
      propertyPath: m_AnchorMax.y
      value: 0
      objectReference: {fileID: 0}
    - target: {fileID: 8733986632038564262, guid: 99db2e97e7d7f484db162ab5d0069e4c, type: 3}
      propertyPath: m_AnchorMin.y
      value: 0
      objectReference: {fileID: 0}
    - target: {fileID: 8733986632038564262, guid: 99db2e97e7d7f484db162ab5d0069e4c, type: 3}
      propertyPath: m_AnchoredPosition.x
      value: 0
      objectReference: {fileID: 0}
    - target: {fileID: 8733986632038564262, guid: 99db2e97e7d7f484db162ab5d0069e4c, type: 3}
      propertyPath: m_AnchoredPosition.y
      value: 0
      objectReference: {fileID: 0}
    m_RemovedComponents: []
  m_SourcePrefab: {fileID: 100100000, guid: 99db2e97e7d7f484db162ab5d0069e4c, type: 3}
