%YAML 1.1
%TAG !u! tag:unity3d.com,2011:
--- !u!114 &11400000
MonoBehaviour:
  m_ObjectHideFlags: 0
  m_CorrespondingSourceObject: {fileID: 0}
  m_PrefabInstance: {fileID: 0}
  m_PrefabAsset: {fileID: 0}
  m_GameObject: {fileID: 0}
  m_Enabled: 1
  m_EditorHideFlags: 0
  m_Script: {fileID: 11500000, guid: 93e35967d69caf544b0723989b890e2b, type: 3}
  m_Name: Bolt
  m_EditorClassIdentifier: 
  meshList:
  - {fileID: -360759275496547647, guid: 538da0e67c4694749bc11c6e0a5293f7, type: 3}
  meshScaleList:
  - {x: -1, y: -1, z: -1}
  meshPosList:
  - {x: 0, y: 0, z: 0}
  meshRotList:
  - {x: -0.49999982, y: -0.5000002, z: -0.5000002, w: -0.49999982}
