%YAML 1.1
%TAG !u! tag:unity3d.com,2011:
--- !u!114 &11400000
MonoBehaviour:
  m_ObjectHideFlags: 0
  m_CorrespondingSourceObject: {fileID: 0}
  m_PrefabInstance: {fileID: 0}
  m_PrefabAsset: {fileID: 0}
  m_GameObject: {fileID: 0}
  m_Enabled: 1
  m_EditorHideFlags: 0
  m_Script: {fileID: 11500000, guid: 93e35967d69caf544b0723989b890e2b, type: 3}
  m_Name: Plastik
  m_EditorClassIdentifier: 
  meshList:
  - {fileID: -3586085158799672849, guid: e817e8374a3c31942b8983d50de5ac67, type: 3}
  meshScaleList:
  - {x: 109.53836, y: 27.384584, z: 219.07668}
  meshPosList:
  - {x: 0, y: 0, z: 0}
  meshRotList:
  - {x: -0, y: -0, z: -0, w: 1}
