%YAML 1.1
%TAG !u! tag:unity3d.com,2011:
--- !u!114 &11400000
MonoBehaviour:
  m_ObjectHideFlags: 0
  m_CorrespondingSourceObject: {fileID: 0}
  m_PrefabInstance: {fileID: 0}
  m_PrefabAsset: {fileID: 0}
  m_GameObject: {fileID: 0}
  m_Enabled: 1
  m_EditorHideFlags: 0
  m_Script: {fileID: 11500000, guid: 0b6c636b88b522c46945085f6637e72c, type: 3}
  m_Name: VR_360
  m_EditorClassIdentifier: 
  ScenarioName: VR 360
  ScenarioSprite: {fileID: 21300000, guid: 3db07c9e56739e445bfabf0da13de2d0, type: 3}
  SubScenariolist:
  - {fileID: 11400000, guid: afd5fb840ea6def4d8ea795f277793a9, type: 2}
