%YAML 1.1
%TAG !u! tag:unity3d.com,2011:
--- !u!114 &11400000
MonoBehaviour:
  m_ObjectHideFlags: 0
  m_CorrespondingSourceObject: {fileID: 0}
  m_PrefabInstance: {fileID: 0}
  m_PrefabAsset: {fileID: 0}
  m_GameObject: {fileID: 0}
  m_Enabled: 1
  m_EditorHideFlags: 0
  m_Script: {fileID: 11500000, guid: dc30735a6f974fda88a33f70e2b17a3b, type: 3}
  m_Name: Biji Pose
  m_EditorClassIdentifier: 
  SnappedLeft: 0
  LeftHand:
    Position: {x: 0, y: -0, z: -0.03}
    Rotation: {x: -0.061628442, y: 0.06162845, z: 0.70441616, w: 0.704416}
    Thumb:
      Bones:
      - Position: {x: 0.026298406, y: -0.041470297, z: 0.020564148}
        Rotation: {x: 0.3069186, y: 0.9318169, z: 0.15754038, w: 0.11269181}
      - Position: {x: -0.03258824, y: 0, z: 0}
        Rotation: {x: 0.01721234, y: 0.007500209, z: 0.07353306, w: 0.9971161}
      - Position: {x: -0.026371535, y: 1.4210854e-16, z: -1.0658141e-16}
        Rotation: {x: 0.027590483, y: 0.0056660534, z: 0.2010854, w: 0.9791688}
    Index:
      Bones:
      - Position: {x: 0.087078705, y: -0.035099912, z: -0.0068139634}
        Rotation: {x: 0.055844642, y: 0.73089284, z: 0.6695575, w: 0.11987428}
      - Position: {x: -0.04157472, y: 0, z: 7.105427e-17}
        Rotation: {x: -0.000000084750354, y: -0.000000052154064, z: -0.05996177, w: 0.9982007}
      - Position: {x: -0.022153005, y: 7.105427e-17, z: 0}
        Rotation: {x: 0.000000048039308, y: -0.00000013923727, z: 0.016457109, w: 0.99986464}
    Middle:
      Bones:
      - Position: {x: 0.09142233, y: -0.0095321555, z: -0.010838781}
        Rotation: {x: -0.037409768, y: 0.6478029, z: 0.7561135, w: 0.08511365}
      - Position: {x: -0.045967426, y: 1.4210854e-16, z: 7.105427e-17}
        Rotation: {x: -0.00000015599652, y: 0.00000006705522, z: -0.049264986, w: 0.99878573}
      - Position: {x: -0.029590597, y: 3.5527136e-17, z: 0}
        Rotation: {x: -0.00000002616818, y: 0.00000001304015, z: -0.00040598962, w: 0.99999994}
    Ring:
      Bones:
      - Position: {x: 0.089531735, y: 0.012713979, z: -0.0018533266}
        Rotation: {x: -0.10180098, y: 0.5692992, z: 0.8152097, w: 0.031114789}
      - Position: {x: -0.038572025, y: 0, z: 7.105427e-17}
        Rotation: {x: -0.000000054948025, y: -0.00000004470348, z: -0.08465392, w: 0.9964104}
      - Position: {x: -0.025775291, y: -1.7763568e-17, z: -1.4210854e-16}
        Rotation: {x: -0.000000075886305, y: 0.000000026905665, z: 0.0053471248, w: 0.99998575}
    Pinky:
      Bones:
      - Position: {x: 0.031271502, y: 0.01906803, z: 0.01150759}
        Rotation: {x: -0.46932158, y: -0.083111495, z: 0.08672836, w: 0.8748188}
      - Position: {x: 0.053570647, y: 0.0024384, z: -0.0014630399}
        Rotation: {x: -0.018676333, y: 0.007348353, z: 0.9961378, w: 0.085479185}
      - Position: {x: -0.03335595, y: 1.4210854e-16, z: -1.4210854e-16}
        Rotation: {x: -0.000000058149453, y: -0.00000011007069, z: 0.033362083, w: 0.99944335}
      - Position: {x: -0.017418223, y: 1.3322676e-16, z: 7.105427e-17}
        Rotation: {x: -6.36854e-17, y: -2.4790136e-17, z: -0.04699399, w: 0.9988952}
  RightHand:
    Position: {x: -0, y: -0, z: -0.03}
    Rotation: {x: -0.06162845, y: -0.06162845, z: -0.70441604, w: 0.70441604}
    Thumb:
      Bones:
      - Position: {x: -0.026298406, y: 0.041470297, z: -0.020564148}
        Rotation: {x: 0.3069186, y: 0.9318169, z: 0.15754038, w: 0.11269181}
      - Position: {x: 0.03258824, y: -0, z: -0}
        Rotation: {x: 0.01721234, y: 0.007500209, z: 0.07353306, w: 0.9971161}
      - Position: {x: 0.026371535, y: -1.4210854e-16, z: 1.0658141e-16}
        Rotation: {x: 0.027590487, y: 0.0056660534, z: 0.20108543, w: 0.9791688}
    Index:
      Bones:
      - Position: {x: -0.087078705, y: 0.035099912, z: 0.0068139634}
        Rotation: {x: 0.055844642, y: 0.73089284, z: 0.6695575, w: 0.11987428}
      - Position: {x: 0.04157472, y: -0, z: -7.105427e-17}
        Rotation: {x: -0.000000084750354, y: -0.000000052154064, z: -0.05996177, w: 0.9982007}
      - Position: {x: 0.022153005, y: -7.105427e-17, z: -0}
        Rotation: {x: 0.000000048039308, y: -0.00000013923727, z: 0.016457109, w: 0.99986464}
    Middle:
      Bones:
      - Position: {x: -0.09142233, y: 0.0095321555, z: 0.010838781}
        Rotation: {x: -0.037409768, y: 0.6478029, z: 0.7561135, w: 0.08511365}
      - Position: {x: 0.045967426, y: -1.4210854e-16, z: -7.105427e-17}
        Rotation: {x: -0.00000015599652, y: 0.00000006705522, z: -0.049264986, w: 0.99878573}
      - Position: {x: 0.029590597, y: -3.5527136e-17, z: -0}
        Rotation: {x: -0.00000002616818, y: 0.00000001304015, z: -0.00040598962, w: 0.99999994}
    Ring:
      Bones:
      - Position: {x: -0.089531735, y: -0.012713979, z: 0.0018533266}
        Rotation: {x: -0.10180098, y: 0.5692992, z: 0.8152097, w: 0.031114789}
      - Position: {x: 0.038572025, y: -0, z: -7.105427e-17}
        Rotation: {x: -0.000000054948025, y: -0.00000004470348, z: -0.08465392, w: 0.9964104}
      - Position: {x: 0.025775291, y: 1.7763568e-17, z: 1.4210854e-16}
        Rotation: {x: -0.000000075886305, y: 0.000000026905665, z: 0.0053471248, w: 0.99998575}
    Pinky:
      Bones:
      - Position: {x: -0.031271502, y: -0.01906803, z: -0.01150759}
        Rotation: {x: -0.46932158, y: -0.083111495, z: 0.08672836, w: 0.8748188}
      - Position: {x: -0.053570647, y: -0.0024384, z: 0.0014630399}
        Rotation: {x: -0.018676333, y: 0.007348353, z: 0.9961378, w: 0.085479185}
      - Position: {x: 0.03335595, y: -1.4210854e-16, z: 1.4210854e-16}
        Rotation: {x: -0.000000058149453, y: -0.00000011007069, z: 0.033362083, w: 0.99944335}
      - Position: {x: 0.017418223, y: -1.3322676e-16, z: -7.105427e-17}
        Rotation: {x: -6.36854e-17, y: -2.4790136e-17, z: -0.04699399, w: 0.9988952}
