%YAML 1.1
%TAG !u! tag:unity3d.com,2011:
--- !u!114 &11400000
MonoBehaviour:
  m_ObjectHideFlags: 0
  m_CorrespondingSourceObject: {fileID: 0}
  m_PrefabInstance: {fileID: 0}
  m_PrefabAsset: {fileID: 0}
  m_GameObject: {fileID: 0}
  m_Enabled: 1
  m_EditorHideFlags: 0
  m_Script: {fileID: 11500000, guid: 93e35967d69caf544b0723989b890e2b, type: 3}
  m_Name: Buku Telepon
  m_EditorClassIdentifier: 
  meshList:
  - {fileID: -6497515412723280915, guid: 518315e09cdd9434397ea72918a748e0, type: 3}
  meshScaleList:
  - {x: 100, y: 100, z: 100}
  meshPosList:
  - {x: 0, y: 0, z: 0}
  meshRotList:
  - {x: -0.5000008, y: -0.49999923, z: -0.49999928, w: 0.5000007}
