%YAML 1.1
%TAG !u! tag:unity3d.com,2011:
--- !u!114 &11400000
MonoBehaviour:
  m_ObjectHideFlags: 0
  m_CorrespondingSourceObject: {fileID: 0}
  m_PrefabInstance: {fileID: 0}
  m_PrefabAsset: {fileID: 0}
  m_GameObject: {fileID: 0}
  m_Enabled: 1
  m_EditorHideFlags: 0
  m_Script: {fileID: 11500000, guid: 93e35967d69caf544b0723989b890e2b, type: 3}
  m_Name: T Shape
  m_EditorClassIdentifier: 
  meshList:
  - {fileID: 3163171260390484736, guid: 9dcf1dc1e88e017499e125a65db958cb, type: 3}
  - {fileID: 5009161486953370047, guid: 9dcf1dc1e88e017499e125a65db958cb, type: 3}
  - {fileID: -8024611349946882221, guid: 9dcf1dc1e88e017499e125a65db958cb, type: 3}
  - {fileID: -4624424834575085134, guid: 9dcf1dc1e88e017499e125a65db958cb, type: 3}
  meshScaleList:
  - {x: 120.00002, y: 120.00001, z: 119.99999}
  - {x: 120.00002, y: 120.00001, z: 119.99999}
  - {x: 120.00002, y: 120.00001, z: 119.99999}
  - {x: 120.00002, y: 120.00001, z: 119.99999}
  meshPosList:
  - {x: -0.0004606585, y: -0.00015003208, z: 0.0005491003}
  - {x: 0.00035241558, y: -0.0001504958, z: 0.0005491003}
  - {x: -0.000054039396, y: 0.00018844123, z: 0.0005491004}
  - {x: -0.000054214437, y: -0.00015043023, z: 0.0005481964}
  meshRotList:
  - {x: 0.000000014901161, y: 0.00000022351742, z: -1, w: 0.00000023841858}
  - {x: 0.000000014901161, y: 0.00000022351742, z: -1, w: 0.00000023841858}
  - {x: 0.000000014901161, y: 0.00000022351742, z: -1, w: 0.00000023841858}
  - {x: 0.000000014901161, y: 0.00000022351742, z: -1, w: 0.00000023841858}
