%YAML 1.1
%TAG !u! tag:unity3d.com,2011:
--- !u!78 &1
TagManager:
  serializedVersion: 2
  tags:
  - LookTarget
  - UITargetPos
  - IndexPoint
  - Clean Trigger
  - Glove
  - Scenario Tool
  - Hologram
  - Scenario
  - Complete
  - Missile
  - Menu Button
  - Failed
  - Correct
  layers:
  - Default
  - TransparentFX
  - Ignore Raycast
  - 
  - Water
  - UI
  - Chain
  - 
  - Player
  - DynamicPose
  - RenderTexture
  - 
  - 
  - 
  - 
  - 
  - 
  - 
  - 
  - Socket
  - Grabbable
  - Hand
  - 
  - 
  - 
  - 
  - 
  - 
  - 
  - 
  - 
  - Teleport
  m_SortingLayers:
  - name: Default
    uniqueID: 0
    locked: 0
