%YAML 1.1
%TAG !u! tag:unity3d.com,2011:
--- !u!1001 &6211793753169836001
PrefabInstance:
  m_ObjectHideFlags: 0
  serializedVersion: 2
  m_Modification:
    m_TransformParent: {fileID: 0}
    m_Modifications:
    - target: {fileID: 2960907092784176133, guid: 0412043d4e345a04ab3bbaaf858ad3cb, type: 3}
      propertyPath: m_RootOrder
      value: 0
      objectReference: {fileID: 0}
    - target: {fileID: 2960907092784176133, guid: 0412043d4e345a04ab3bbaaf858ad3cb, type: 3}
      propertyPath: m_LocalPosition.x
      value: 1.678
      objectReference: {fileID: 0}
    - target: {fileID: 2960907092784176133, guid: 0412043d4e345a04ab3bbaaf858ad3cb, type: 3}
      propertyPath: m_LocalPosition.y
      value: 1.5
      objectReference: {fileID: 0}
    - target: {fileID: 2960907092784176133, guid: 0412043d4e345a04ab3bbaaf858ad3cb, type: 3}
      propertyPath: m_LocalPosition.z
      value: 0.591
      objectReference: {fileID: 0}
    - target: {fileID: 2960907092784176133, guid: 0412043d4e345a04ab3bbaaf858ad3cb, type: 3}
      propertyPath: m_LocalRotation.w
      value: 0.96812683
      objectReference: {fileID: 0}
    - target: {fileID: 2960907092784176133, guid: 0412043d4e345a04ab3bbaaf858ad3cb, type: 3}
      propertyPath: m_LocalRotation.x
      value: -0
      objectReference: {fileID: 0}
    - target: {fileID: 2960907092784176133, guid: 0412043d4e345a04ab3bbaaf858ad3cb, type: 3}
      propertyPath: m_LocalRotation.y
      value: 0.25046048
      objectReference: {fileID: 0}
    - target: {fileID: 2960907092784176133, guid: 0412043d4e345a04ab3bbaaf858ad3cb, type: 3}
      propertyPath: m_LocalRotation.z
      value: -0
      objectReference: {fileID: 0}
    - target: {fileID: 2960907092784176133, guid: 0412043d4e345a04ab3bbaaf858ad3cb, type: 3}
      propertyPath: m_LocalEulerAnglesHint.x
      value: 0
      objectReference: {fileID: 0}
    - target: {fileID: 2960907092784176133, guid: 0412043d4e345a04ab3bbaaf858ad3cb, type: 3}
      propertyPath: m_LocalEulerAnglesHint.y
      value: 29.01
      objectReference: {fileID: 0}
    - target: {fileID: 2960907092784176133, guid: 0412043d4e345a04ab3bbaaf858ad3cb, type: 3}
      propertyPath: m_LocalEulerAnglesHint.z
      value: 0
      objectReference: {fileID: 0}
    - target: {fileID: 2960907092784176138, guid: 0412043d4e345a04ab3bbaaf858ad3cb, type: 3}
      propertyPath: m_Name
      value: Player Juga NonMKB
      objectReference: {fileID: 0}
    - target: {fileID: 2960907092784176138, guid: 0412043d4e345a04ab3bbaaf858ad3cb, type: 3}
      propertyPath: m_IsActive
      value: 1
      objectReference: {fileID: 0}
    - target: {fileID: 2960907093357940415, guid: 0412043d4e345a04ab3bbaaf858ad3cb, type: 3}
      propertyPath: CanJump
      value: 1
      objectReference: {fileID: 0}
    - target: {fileID: 2960907093357940415, guid: 0412043d4e345a04ab3bbaaf858ad3cb, type: 3}
      propertyPath: UseWASD
      value: 0
      objectReference: {fileID: 0}
    - target: {fileID: 2960907093357940415, guid: 0412043d4e345a04ab3bbaaf858ad3cb, type: 3}
      propertyPath: MouseTurning
      value: 0
      objectReference: {fileID: 0}
    - target: {fileID: 6482276180253856024, guid: 0412043d4e345a04ab3bbaaf858ad3cb, type: 3}
      propertyPath: m_IsActive
      value: 0
      objectReference: {fileID: 0}
    - target: {fileID: 6700095552531550891, guid: 0412043d4e345a04ab3bbaaf858ad3cb, type: 3}
      propertyPath: m_Enabled
      value: 0
      objectReference: {fileID: 0}
    - target: {fileID: 6700095552531550891, guid: 0412043d4e345a04ab3bbaaf858ad3cb, type: 3}
      propertyPath: Summons.Array.data[0].object
      value: 
      objectReference: {fileID: 0}
    - target: {fileID: 6700095552531550891, guid: 0412043d4e345a04ab3bbaaf858ad3cb, type: 3}
      propertyPath: OnActive.m_PersistentCalls.m_Calls.Array.data[0].m_Target
      value: 
      objectReference: {fileID: 0}
    - target: {fileID: 6700095552531550891, guid: 0412043d4e345a04ab3bbaaf858ad3cb, type: 3}
      propertyPath: OnActive.m_PersistentCalls.m_Calls.Array.data[1].m_Target
      value: 
      objectReference: {fileID: 0}
    - target: {fileID: 6700095552531550891, guid: 0412043d4e345a04ab3bbaaf858ad3cb, type: 3}
      propertyPath: OnActive.m_PersistentCalls.m_Calls.Array.data[2].m_Target
      value: 
      objectReference: {fileID: 0}
    - target: {fileID: 6700095552531550891, guid: 0412043d4e345a04ab3bbaaf858ad3cb, type: 3}
      propertyPath: OnActive.m_PersistentCalls.m_Calls.Array.data[3].m_Target
      value: 
      objectReference: {fileID: 0}
    - target: {fileID: 6700095552531550891, guid: 0412043d4e345a04ab3bbaaf858ad3cb, type: 3}
      propertyPath: OnInactive.m_PersistentCalls.m_Calls.Array.data[0].m_Target
      value: 
      objectReference: {fileID: 0}
    - target: {fileID: 6700095552531550891, guid: 0412043d4e345a04ab3bbaaf858ad3cb, type: 3}
      propertyPath: OnInactive.m_PersistentCalls.m_Calls.Array.data[1].m_Target
      value: 
      objectReference: {fileID: 0}
    - target: {fileID: 6700095552531550891, guid: 0412043d4e345a04ab3bbaaf858ad3cb, type: 3}
      propertyPath: OnInactive.m_PersistentCalls.m_Calls.Array.data[2].m_Target
      value: 
      objectReference: {fileID: 0}
    - target: {fileID: 6700095552531550891, guid: 0412043d4e345a04ab3bbaaf858ad3cb, type: 3}
      propertyPath: OnInactive.m_PersistentCalls.m_Calls.Array.data[3].m_Target
      value: 
      objectReference: {fileID: 0}
    m_RemovedComponents:
    - {fileID: 6700095552531550891, guid: 0412043d4e345a04ab3bbaaf858ad3cb, type: 3}
    - {fileID: 2476268609170926821, guid: 0412043d4e345a04ab3bbaaf858ad3cb, type: 3}
  m_SourcePrefab: {fileID: 100100000, guid: 0412043d4e345a04ab3bbaaf858ad3cb, type: 3}
