%YAML 1.1
%TAG !u! tag:unity3d.com,2011:
--- !u!114 &11400000
MonoBehaviour:
  m_ObjectHideFlags: 0
  m_CorrespondingSourceObject: {fileID: 0}
  m_PrefabInstance: {fileID: 0}
  m_PrefabAsset: {fileID: 0}
  m_GameObject: {fileID: 0}
  m_Enabled: 1
  m_EditorHideFlags: 0
  m_Script: {fileID: 11500000, guid: 93e35967d69caf544b0723989b890e2b, type: 3}
  m_Name: Cube B
  m_EditorClassIdentifier: 
  meshList:
  - {fileID: 10202, guid: 0000000000000000e000000000000000, type: 0}
  - {fileID: 10202, guid: 0000000000000000e000000000000000, type: 0}
  - {fileID: 10202, guid: 0000000000000000e000000000000000, type: 0}
  - {fileID: 10202, guid: 0000000000000000e000000000000000, type: 0}
  - {fileID: 10202, guid: 0000000000000000e000000000000000, type: 0}
  meshScaleList:
  - {x: 0.11806953, y: -0.0004909903, z: 0.11806953}
  - {x: 0.11806953, y: 0.11806954, z: -0.010669472}
  - {x: 0.11806953, y: 0.11806954, z: -0.010669472}
  - {x: 0.11806956, y: 0.11806954, z: -0.010669472}
  - {x: 0.11806956, y: 0.11806954, z: -0.010669472}
  meshPosList:
  - {x: 0, y: -0.061160088, z: 0}
  - {x: 0, y: 0, z: -0.06434798}
  - {x: 0, y: 0, z: 0.06434798}
  - {x: 0.06434798, y: 0, z: 0}
  - {x: -0.06434798, y: 0, z: 0}
  meshRotList:
  - {x: -0, y: -0, z: -0, w: 1}
  - {x: -0, y: -0, z: -0, w: 1}
  - {x: -0, y: -0, z: -0, w: 1}
  - {x: -0, y: 0.7071068, z: -0, w: 0.7071068}
  - {x: -0, y: 0.7071068, z: -0, w: 0.7071068}
