%YAML 1.1
%TAG !u! tag:unity3d.com,2011:
--- !u!114 &11400000
MonoBehaviour:
  m_ObjectHideFlags: 0
  m_CorrespondingSourceObject: {fileID: 0}
  m_PrefabInstance: {fileID: 0}
  m_PrefabAsset: {fileID: 0}
  m_GameObject: {fileID: 0}
  m_Enabled: 1
  m_EditorHideFlags: 0
  m_Script: {fileID: 11500000, guid: 93e35967d69caf544b0723989b890e2b, type: 3}
  m_Name: TextTag
  m_EditorClassIdentifier: 
  meshList:
  - {fileID: 10202, guid: 0000000000000000e000000000000000, type: 0}
  - {fileID: 0}
  meshScaleList:
  - {x: 0, y: 0, z: 0}
  - {x: 0.2, y: 0.2, z: 0.005}
  meshPosList:
  - {x: 0, y: 0, z: 0}
  - {x: 0, y: 0, z: 0.00999999}
  meshRotList:
  - {x: -0, y: -0, z: -0, w: 1}
  - {x: -0, y: 1, z: -0, w: 0}
