%YAML 1.1
%TAG !u! tag:unity3d.com,2011:
--- !u!114 &11400000
MonoBehaviour:
  m_ObjectHideFlags: 0
  m_CorrespondingSourceObject: {fileID: 0}
  m_PrefabInstance: {fileID: 0}
  m_PrefabAsset: {fileID: 0}
  m_GameObject: {fileID: 0}
  m_Enabled: 1
  m_EditorHideFlags: 0
  m_Script: {fileID: 11500000, guid: 2136a598822d40e40975bb7baa279bf1, type: 3}
  m_Name: 6. Mengoperasikan Butterfly Valve
  m_EditorClassIdentifier: 
  id: 5
  SubScenarioName: Mengoperasikan Butterfly Valve
  SubScenarioSprite: {fileID: 21300000, guid: 50957164a0f5ed947a8237e0fc8356b8, type: 3}
  Purpose: Operator memahami cara kerja mesin dan safety-nya
  SubScenarioScene: MainScene
  SubScenarioPrefab: {fileID: 8391802662893068164, guid: 502cf2cd969b61f458be2fecd6e6eabd, type: 3}
  status: 1
  isLinear: 1
  isSandbox: 0
