%YAML 1.1
%TAG !u! tag:unity3d.com,2011:
--- !u!114 &11400000
MonoBehaviour:
  m_ObjectHideFlags: 0
  m_CorrespondingSourceObject: {fileID: 0}
  m_PrefabInstance: {fileID: 0}
  m_PrefabAsset: {fileID: 0}
  m_GameObject: {fileID: 0}
  m_Enabled: 1
  m_EditorHideFlags: 0
  m_Script: {fileID: 11500000, guid: 93e35967d69caf544b0723989b890e2b, type: 3}
  m_Name: ClampRoundSiever
  m_EditorClassIdentifier: 
  meshList:
  - {fileID: -3937447125386825193, guid: 9818eca83b1c49e4aa380bb2b07c95d4, type: 3}
  - {fileID: 7128840630147344760, guid: 9818eca83b1c49e4aa380bb2b07c95d4, type: 3}
  - {fileID: -6975990438781134178, guid: 9818eca83b1c49e4aa380bb2b07c95d4, type: 3}
  - {fileID: 5529895938366712480, guid: 9818eca83b1c49e4aa380bb2b07c95d4, type: 3}
  meshScaleList:
  - {x: 1.02887, y: 1.02887, z: 1.02887}
  - {x: 1.0288696, y: 1.0288696, z: 1.0288696}
  - {x: 1.0288696, y: 1.0288696, z: 1.0288696}
  - {x: 1.0288696, y: 1.0288696, z: 1.0288696}
  meshPosList:
  - {x: 0, y: 0, z: 0}
  - {x: 0.025993869, y: 0.00045166013, z: 0.7318498}
  - {x: -0.19951753, y: 0.0004382324, z: 0.73728013}
  - {x: 0.23184991, y: 0.0004382324, z: 0.7327592}
  meshRotList:
  - {x: 0, y: 0, z: 0, w: 1}
  - {x: 0, y: -2.2737376e-15, z: -0, w: 1}
  - {x: 0, y: -2.2737376e-15, z: -0, w: 1}
  - {x: 0, y: -2.2737376e-15, z: -0, w: 1}
