%YAML 1.1
%TAG !u! tag:unity3d.com,2011:
--- !u!114 &11400000
MonoBehaviour:
  m_ObjectHideFlags: 0
  m_CorrespondingSourceObject: {fileID: 0}
  m_PrefabInstance: {fileID: 0}
  m_PrefabAsset: {fileID: 0}
  m_GameObject: {fileID: 0}
  m_Enabled: 1
  m_EditorHideFlags: 0
  m_Script: {fileID: 11500000, guid: 2136a598822d40e40975bb7baa279bf1, type: 3}
  m_Name: 1. Persiapan Change Over Total Dry Cleaning (TDC) Round Siever
  m_EditorClassIdentifier: 
  id: 0
  SubScenarioName: Persiapan Change Over Total Dry Cleaning (TDC) Round Siever
  SubScenarioSprite: {fileID: 21300000, guid: 50957164a0f5ed947a8237e0fc8356b8, type: 3}
  Purpose: Operator mengetahui peralatan apa saja yang dibutuhkan saat proses <i>TDC
    Round Siever</i> agar tidak terjadi kecelakaan kerja
  SubScenarioScene: MainScene
  SubScenarioPrefab: {fileID: 5856700733125027767, guid: e4ec92e22db5e084fba1d083e68765ad, type: 3}
  status: 1
  isLinear: 1
  isSandbox: 0
