%YAML 1.1
%TAG !u! tag:unity3d.com,2011:
--- !u!114 &11400000
MonoBehaviour:
  m_ObjectHideFlags: 0
  m_CorrespondingSourceObject: {fileID: 0}
  m_PrefabInstance: {fileID: 0}
  m_PrefabAsset: {fileID: 0}
  m_GameObject: {fileID: 0}
  m_Enabled: 1
  m_EditorHideFlags: 0
  m_Script: {fileID: 11500000, guid: 2136a598822d40e40975bb7baa279bf1, type: 3}
  m_Name: 3. Pembersihan Komponen-Komponen Round Siever
  m_EditorClassIdentifier: 
  id: 2
  SubScenarioName: Pembersihan Komponen-Komponen Round Siever
  SubScenarioSprite: {fileID: 21300000, guid: 50957164a0f5ed947a8237e0fc8356b8, type: 3}
  Purpose: Operator memahami komponen-komponen yang harus disanitasi dan penggunaan
    peralatan sehingga hasil swab test-nya tidak ada yang tidak higienis
  SubScenarioScene: MainScene
  SubScenarioPrefab: {fileID: 1727642443958814338, guid: c2cf5f5707dff1f42979af6f7c72b026, type: 3}
  status: 1
  isLinear: 1
  isSandbox: 0
